[gd_scene load_steps=11 format=3 uid="uid://cr4r3j0284wod"]

[ext_resource type="Script" path="res://targets/spinner.gd" id="1_82nwr"]
[ext_resource type="AudioStream" uid="uid://cydqanwk3xrru" path="res://assets/sounds/SOUND131.WAV" id="2_bnmy1"]

[sub_resource type="StandardMaterial3D" id="StandardMaterial3D_h6kgy"]
resource_name = "ID9.004"
cull_mode = 2
vertex_color_use_as_albedo = true
albedo_color = Color(0.961075, 0.961075, 0.961075, 1)
roughness = 0.5

[sub_resource type="ArrayMesh" id="ArrayMesh_4niuk"]
_surfaces = [{
"aabb": AABB(-0.0225, 0.0025, -0.00150003, 0.045, 0.02, 0.003),
"format": 34359742465,
"index_count": 936,
"index_data": PackedByteArray(0, 0, 2, 0, 1, 0, 1, 0, 3, 0, 0, 0, 4, 0, 6, 0, 5, 0, 6, 0, 4, 0, 7, 0, 8, 0, 3, 0, 9, 0, 1, 0, 11, 0, 10, 0, 12, 0, 8, 0, 13, 0, 8, 0, 9, 0, 13, 0, 14, 0, 15, 0, 4, 0, 16, 0, 8, 0, 17, 0, 8, 0, 12, 0, 17, 0, 18, 0, 19, 0, 4, 0, 20, 0, 8, 0, 21, 0, 8, 0, 16, 0, 21, 0, 22, 0, 8, 0, 23, 0, 8, 0, 20, 0, 23, 0, 4, 0, 8, 0, 18, 0, 8, 0, 22, 0, 18, 0, 4, 0, 19, 0, 14, 0, 4, 0, 15, 0, 7, 0, 4, 0, 25, 0, 24, 0, 5, 0, 25, 0, 4, 0, 1, 0, 4, 0, 26, 0, 24, 0, 26, 0, 4, 0, 3, 0, 1, 0, 27, 0, 1, 0, 26, 0, 11, 0, 28, 0, 1, 0, 29, 0, 1, 0, 10, 0, 29, 0, 30, 0, 1, 0, 31, 0, 1, 0, 28, 0, 31, 0, 32, 0, 1, 0, 33, 0, 1, 0, 30, 0, 33, 0, 1, 0, 34, 0, 27, 0, 1, 0, 32, 0, 34, 0, 35, 0, 3, 0, 36, 0, 3, 0, 27, 0, 36, 0, 37, 0, 3, 0, 38, 0, 3, 0, 35, 0, 38, 0, 39, 0, 3, 0, 40, 0, 3, 0, 37, 0, 40, 0, 41, 0, 3, 0, 42, 0, 3, 0, 39, 0, 42, 0, 9, 0, 3, 0, 41, 0, 43, 0, 4, 0, 44, 0, 4, 0, 43, 0, 8, 0, 44, 0, 46, 0, 45, 0, 47, 0, 46, 0, 44, 0, 43, 0, 48, 0, 0, 0, 2, 0, 50, 0, 49, 0, 51, 0, 52, 0, 43, 0, 43, 0, 52, 0, 48, 0, 53, 0, 44, 0, 54, 0, 55, 0, 56, 0, 43, 0, 43, 0, 56, 0, 51, 0, 57, 0, 44, 0, 58, 0, 59, 0, 60, 0, 43, 0, 43, 0, 60, 0, 55, 0, 61, 0, 62, 0, 43, 0, 43, 0, 62, 0, 59, 0, 44, 0, 57, 0, 43, 0, 43, 0, 57, 0, 61, 0, 44, 0, 53, 0, 58, 0, 44, 0, 45, 0, 54, 0, 44, 0, 64, 0, 63, 0, 47, 0, 44, 0, 63, 0, 2, 0, 65, 0, 44, 0, 64, 0, 44, 0, 65, 0, 0, 0, 66, 0, 2, 0, 2, 0, 49, 0, 65, 0, 67, 0, 68, 0, 2, 0, 2, 0, 68, 0, 50, 0, 69, 0, 70, 0, 2, 0, 2, 0, 70, 0, 67, 0, 71, 0, 72, 0, 2, 0, 2, 0, 72, 0, 69, 0, 2, 0, 66, 0, 73, 0, 2, 0, 73, 0, 71, 0, 74, 0, 75, 0, 0, 0, 0, 0, 75, 0, 66, 0, 76, 0, 77, 0, 0, 0, 0, 0, 77, 0, 74, 0, 78, 0, 79, 0, 0, 0, 0, 0, 79, 0, 76, 0, 80, 0, 81, 0, 0, 0, 0, 0, 81, 0, 78, 0, 48, 0, 80, 0, 0, 0, 1, 0, 44, 0, 4, 0, 1, 0, 2, 0, 44, 0, 3, 0, 43, 0, 0, 0, 43, 0, 3, 0, 8, 0, 82, 0, 84, 0, 83, 0, 85, 0, 87, 0, 86, 0, 88, 0, 90, 0, 89, 0, 91, 0, 93, 0, 92, 0, 94, 0, 96, 0, 95, 0, 94, 0, 95, 0, 89, 0, 97, 0, 96, 0, 94, 0, 90, 0, 88, 0, 92, 0, 89, 0, 95, 0, 88, 0, 84, 0, 93, 0, 91, 0, 93, 0, 90, 0, 92, 0, 98, 0, 82, 0, 83, 0, 83, 0, 84, 0, 91, 0, 99, 0, 98, 0, 100, 0, 98, 0, 99, 0, 82, 0, 101, 0, 99, 0, 100, 0, 101, 0, 103, 0, 102, 0, 103, 0, 101, 0, 100, 0, 85, 0, 102, 0, 87, 0, 103, 0, 87, 0, 102, 0, 85, 0, 86, 0, 104, 0, 105, 0, 106, 0, 104, 0, 104, 0, 86, 0, 105, 0, 106, 0, 108, 0, 107, 0, 108, 0, 106, 0, 105, 0, 109, 0, 111, 0, 110, 0, 108, 0, 109, 0, 107, 0, 112, 0, 114, 0, 113, 0, 115, 0, 117, 0, 116, 0, 117, 0, 119, 0, 118, 0, 112, 0, 118, 0, 119, 0, 119, 0, 117, 0, 115, 0, 114, 0, 111, 0, 113, 0, 112, 0, 113, 0, 118, 0, 109, 0, 110, 0, 107, 0, 114, 0, 110, 0, 111, 0, 107, 0, 110, 0, 65, 0, 114, 0, 64, 0, 110, 0, 65, 0, 110, 0, 64, 0, 63, 0, 114, 0, 112, 0, 114, 0, 63, 0, 64, 0, 112, 0, 119, 0, 47, 0, 47, 0, 63, 0, 112, 0, 115, 0, 46, 0, 119, 0, 47, 0, 119, 0, 46, 0, 45, 0, 115, 0, 116, 0, 115, 0, 45, 0, 46, 0, 116, 0, 117, 0, 54, 0, 54, 0, 45, 0, 116, 0, 118, 0, 53, 0, 117, 0, 54, 0, 117, 0, 53, 0, 58, 0, 118, 0, 113, 0, 118, 0, 58, 0, 53, 0, 113, 0, 111, 0, 57, 0, 57, 0, 58, 0, 113, 0, 109, 0, 61, 0, 111, 0, 57, 0, 111, 0, 61, 0, 62, 0, 109, 0, 108, 0, 109, 0, 62, 0, 61, 0, 108, 0, 105, 0, 59, 0, 59, 0, 62, 0, 108, 0, 86, 0, 60, 0, 105, 0, 59, 0, 105, 0, 60, 0, 55, 0, 86, 0, 87, 0, 86, 0, 55, 0, 60, 0, 87, 0, 103, 0, 56, 0, 56, 0, 55, 0, 87, 0, 100, 0, 51, 0, 103, 0, 56, 0, 103, 0, 51, 0, 52, 0, 100, 0, 98, 0, 100, 0, 52, 0, 51, 0, 48, 0, 52, 0, 98, 0, 48, 0, 98, 0, 83, 0, 65, 0, 49, 0, 107, 0, 106, 0, 49, 0, 50, 0, 49, 0, 106, 0, 107, 0, 50, 0, 68, 0, 104, 0, 104, 0, 106, 0, 50, 0, 67, 0, 85, 0, 68, 0, 104, 0, 68, 0, 85, 0, 102, 0, 67, 0, 70, 0, 67, 0, 102, 0, 85, 0, 70, 0, 69, 0, 101, 0, 101, 0, 102, 0, 70, 0, 72, 0, 99, 0, 69, 0, 101, 0, 69, 0, 99, 0, 82, 0, 72, 0, 71, 0, 72, 0, 82, 0, 99, 0, 71, 0, 73, 0, 84, 0, 84, 0, 82, 0, 71, 0, 84, 0, 73, 0, 93, 0, 90, 0, 93, 0, 66, 0, 73, 0, 66, 0, 93, 0, 90, 0, 75, 0, 89, 0, 75, 0, 90, 0, 66, 0, 74, 0, 94, 0, 89, 0, 89, 0, 75, 0, 74, 0, 97, 0, 94, 0, 77, 0, 74, 0, 77, 0, 94, 0, 97, 0, 76, 0, 96, 0, 76, 0, 97, 0, 77, 0, 79, 0, 95, 0, 96, 0, 96, 0, 76, 0, 79, 0, 88, 0, 95, 0, 78, 0, 79, 0, 78, 0, 95, 0, 88, 0, 81, 0, 92, 0, 81, 0, 88, 0, 78, 0, 80, 0, 91, 0, 92, 0, 92, 0, 81, 0, 80, 0, 80, 0, 48, 0, 91, 0, 48, 0, 83, 0, 91, 0, 18, 0, 121, 0, 120, 0, 11, 0, 26, 0, 122, 0, 123, 0, 121, 0, 22, 0, 18, 0, 22, 0, 121, 0, 123, 0, 23, 0, 124, 0, 23, 0, 123, 0, 22, 0, 20, 0, 125, 0, 124, 0, 124, 0, 23, 0, 20, 0, 126, 0, 125, 0, 21, 0, 20, 0, 21, 0, 125, 0, 126, 0, 16, 0, 127, 0, 16, 0, 126, 0, 21, 0, 17, 0, 128, 0, 127, 0, 127, 0, 16, 0, 17, 0, 129, 0, 128, 0, 12, 0, 17, 0, 12, 0, 128, 0, 129, 0, 13, 0, 130, 0, 13, 0, 129, 0, 12, 0, 130, 0, 13, 0, 9, 0, 130, 0, 9, 0, 131, 0, 120, 0, 19, 0, 18, 0, 19, 0, 132, 0, 14, 0, 132, 0, 19, 0, 120, 0, 133, 0, 15, 0, 14, 0, 14, 0, 132, 0, 133, 0, 7, 0, 15, 0, 134, 0, 133, 0, 134, 0, 15, 0, 7, 0, 135, 0, 6, 0, 135, 0, 7, 0, 134, 0, 136, 0, 5, 0, 6, 0, 6, 0, 135, 0, 136, 0, 25, 0, 5, 0, 137, 0, 136, 0, 137, 0, 5, 0, 25, 0, 138, 0, 24, 0, 138, 0, 25, 0, 137, 0, 139, 0, 26, 0, 24, 0, 24, 0, 138, 0, 139, 0, 139, 0, 122, 0, 26, 0, 28, 0, 29, 0, 140, 0, 10, 0, 142, 0, 141, 0, 143, 0, 33, 0, 30, 0, 144, 0, 145, 0, 31, 0, 34, 0, 146, 0, 27, 0, 32, 0, 148, 0, 147, 0, 38, 0, 35, 0, 149, 0, 150, 0, 36, 0, 151, 0, 152, 0, 40, 0, 153, 0, 154, 0, 153, 0, 37, 0, 39, 0, 152, 0, 155, 0, 152, 0, 39, 0, 40, 0, 155, 0, 156, 0, 42, 0, 42, 0, 39, 0, 155, 0, 157, 0, 41, 0, 156, 0, 42, 0, 156, 0, 41, 0, 9, 0, 157, 0, 131, 0, 157, 0, 9, 0, 41, 0, 154, 0, 37, 0, 38, 0, 153, 0, 40, 0, 37, 0, 149, 0, 35, 0, 150, 0, 154, 0, 38, 0, 149, 0, 36, 0, 27, 0, 151, 0, 35, 0, 36, 0, 150, 0, 34, 0, 147, 0, 146, 0, 27, 0, 146, 0, 151, 0, 33, 0, 148, 0, 32, 0, 32, 0, 147, 0, 34, 0, 145, 0, 143, 0, 30, 0, 143, 0, 148, 0, 33, 0, 144, 0, 31, 0, 28, 0, 145, 0, 30, 0, 31, 0, 140, 0, 29, 0, 141, 0, 144, 0, 28, 0, 140, 0, 10, 0, 11, 0, 142, 0, 29, 0, 10, 0, 141, 0, 122, 0, 142, 0, 11, 0, 148, 0, 131, 0, 147, 0, 140, 0, 126, 0, 127, 0, 155, 0, 150, 0, 151, 0, 157, 0, 156, 0, 146, 0, 149, 0, 152, 0, 153, 0, 149, 0, 150, 0, 152, 0, 154, 0, 149, 0, 153, 0, 151, 0, 156, 0, 155, 0, 150, 0, 155, 0, 152, 0, 147, 0, 157, 0, 146, 0, 146, 0, 156, 0, 151, 0, 130, 0, 131, 0, 148, 0, 131, 0, 157, 0, 147, 0, 143, 0, 129, 0, 130, 0, 130, 0, 148, 0, 143, 0, 145, 0, 129, 0, 143, 0, 145, 0, 144, 0, 128, 0, 128, 0, 129, 0, 145, 0, 140, 0, 127, 0, 144, 0, 128, 0, 144, 0, 127, 0, 140, 0, 141, 0, 126, 0, 125, 0, 141, 0, 142, 0, 141, 0, 125, 0, 126, 0, 142, 0, 122, 0, 124, 0, 124, 0, 125, 0, 142, 0, 123, 0, 139, 0, 121, 0, 124, 0, 122, 0, 123, 0, 137, 0, 120, 0, 138, 0, 135, 0, 134, 0, 133, 0, 133, 0, 132, 0, 136, 0, 137, 0, 136, 0, 132, 0, 136, 0, 135, 0, 133, 0, 138, 0, 120, 0, 121, 0, 137, 0, 132, 0, 120, 0, 123, 0, 122, 0, 139, 0, 138, 0, 121, 0, 139, 0),
"lods": [8.50688e-05, PackedByteArray(0, 0, 2, 0, 1, 0, 1, 0, 3, 0, 0, 0, 4, 0, 7, 0, 25, 0, 4, 0, 15, 0, 7, 0, 4, 0, 25, 0, 24, 0, 4, 0, 18, 0, 15, 0, 24, 0, 11, 0, 4, 0, 4, 0, 8, 0, 18, 0, 8, 0, 20, 0, 18, 0, 20, 0, 8, 0, 16, 0, 16, 0, 8, 0, 12, 0, 12, 0, 8, 0, 9, 0, 1, 0, 4, 0, 11, 0, 8, 0, 3, 0, 9, 0, 1, 0, 11, 0, 10, 0, 28, 0, 1, 0, 10, 0, 30, 0, 1, 0, 28, 0, 1, 0, 30, 0, 27, 0, 3, 0, 1, 0, 27, 0, 9, 0, 3, 0, 41, 0, 38, 0, 3, 0, 27, 0, 41, 0, 3, 0, 42, 0, 40, 0, 3, 0, 38, 0, 42, 0, 3, 0, 40, 0, 43, 0, 4, 0, 44, 0, 4, 0, 43, 0, 8, 0, 44, 0, 46, 0, 45, 0, 47, 0, 46, 0, 44, 0, 57, 0, 44, 0, 45, 0, 44, 0, 64, 0, 47, 0, 44, 0, 57, 0, 43, 0, 2, 0, 64, 0, 44, 0, 43, 0, 57, 0, 60, 0, 43, 0, 60, 0, 56, 0, 43, 0, 56, 0, 52, 0, 43, 0, 52, 0, 48, 0, 2, 0, 50, 0, 64, 0, 43, 0, 48, 0, 0, 0, 2, 0, 68, 0, 50, 0, 2, 0, 70, 0, 68, 0, 2, 0, 72, 0, 70, 0, 2, 0, 66, 0, 72, 0, 0, 0, 66, 0, 2, 0, 48, 0, 80, 0, 0, 0, 0, 0, 74, 0, 66, 0, 0, 0, 80, 0, 78, 0, 0, 0, 76, 0, 74, 0, 0, 0, 78, 0, 76, 0, 1, 0, 44, 0, 4, 0, 1, 0, 2, 0, 44, 0, 3, 0, 43, 0, 0, 0, 43, 0, 3, 0, 8, 0, 91, 0, 82, 0, 92, 0, 83, 0, 82, 0, 91, 0, 82, 0, 89, 0, 92, 0, 89, 0, 96, 0, 92, 0, 82, 0, 83, 0, 103, 0, 101, 0, 82, 0, 103, 0, 101, 0, 103, 0, 102, 0, 103, 0, 87, 0, 102, 0, 102, 0, 87, 0, 106, 0, 106, 0, 87, 0, 105, 0, 106, 0, 105, 0, 110, 0, 114, 0, 110, 0, 105, 0, 114, 0, 105, 0, 113, 0, 114, 0, 113, 0, 119, 0, 114, 0, 64, 0, 110, 0, 64, 0, 50, 0, 110, 0, 114, 0, 47, 0, 64, 0, 50, 0, 106, 0, 110, 0, 114, 0, 119, 0, 47, 0, 50, 0, 68, 0, 106, 0, 47, 0, 119, 0, 46, 0, 106, 0, 68, 0, 102, 0, 119, 0, 45, 0, 46, 0, 102, 0, 68, 0, 70, 0, 119, 0, 113, 0, 45, 0, 101, 0, 102, 0, 70, 0, 57, 0, 45, 0, 113, 0, 101, 0, 70, 0, 82, 0, 113, 0, 105, 0, 57, 0, 72, 0, 82, 0, 70, 0, 60, 0, 57, 0, 105, 0, 72, 0, 66, 0, 82, 0, 87, 0, 60, 0, 105, 0, 89, 0, 82, 0, 66, 0, 87, 0, 56, 0, 60, 0, 74, 0, 89, 0, 66, 0, 87, 0, 103, 0, 56, 0, 74, 0, 76, 0, 89, 0, 56, 0, 103, 0, 52, 0, 89, 0, 76, 0, 96, 0, 52, 0, 103, 0, 83, 0, 96, 0, 76, 0, 78, 0, 48, 0, 52, 0, 83, 0, 92, 0, 96, 0, 78, 0, 48, 0, 83, 0, 91, 0, 80, 0, 92, 0, 78, 0, 80, 0, 48, 0, 91, 0, 80, 0, 91, 0, 92, 0, 18, 0, 20, 0, 124, 0, 20, 0, 126, 0, 124, 0, 133, 0, 18, 0, 124, 0, 20, 0, 16, 0, 126, 0, 18, 0, 133, 0, 15, 0, 126, 0, 16, 0, 127, 0, 133, 0, 134, 0, 15, 0, 127, 0, 16, 0, 12, 0, 7, 0, 15, 0, 134, 0, 12, 0, 128, 0, 127, 0, 135, 0, 7, 0, 134, 0, 9, 0, 128, 0, 12, 0, 135, 0, 25, 0, 7, 0, 128, 0, 9, 0, 130, 0, 135, 0, 137, 0, 25, 0, 130, 0, 9, 0, 131, 0, 25, 0, 137, 0, 24, 0, 131, 0, 9, 0, 41, 0, 24, 0, 137, 0, 122, 0, 131, 0, 41, 0, 155, 0, 122, 0, 11, 0, 24, 0, 42, 0, 155, 0, 41, 0, 122, 0, 141, 0, 11, 0, 42, 0, 152, 0, 155, 0, 10, 0, 11, 0, 141, 0, 152, 0, 42, 0, 40, 0, 140, 0, 10, 0, 141, 0, 152, 0, 40, 0, 38, 0, 28, 0, 10, 0, 140, 0, 152, 0, 38, 0, 151, 0, 140, 0, 145, 0, 28, 0, 38, 0, 27, 0, 151, 0, 145, 0, 30, 0, 28, 0, 27, 0, 148, 0, 151, 0, 145, 0, 148, 0, 30, 0, 30, 0, 148, 0, 27, 0, 140, 0, 126, 0, 127, 0, 128, 0, 140, 0, 127, 0, 140, 0, 141, 0, 126, 0, 145, 0, 140, 0, 128, 0, 124, 0, 126, 0, 141, 0, 145, 0, 128, 0, 130, 0, 141, 0, 122, 0, 124, 0, 130, 0, 148, 0, 145, 0, 137, 0, 124, 0, 122, 0, 130, 0, 131, 0, 148, 0, 137, 0, 133, 0, 124, 0, 137, 0, 135, 0, 133, 0, 135, 0, 134, 0, 133, 0, 131, 0, 155, 0, 148, 0, 148, 0, 155, 0, 151, 0, 151, 0, 155, 0, 152, 0), 0.000365229, PackedByteArray(0, 0, 2, 0, 1, 0, 1, 0, 3, 0, 0, 0, 8, 0, 3, 0, 41, 0, 41, 0, 3, 0, 42, 0, 12, 0, 8, 0, 41, 0, 42, 0, 3, 0, 27, 0, 8, 0, 12, 0, 18, 0, 3, 0, 1, 0, 27, 0, 4, 0, 8, 0, 18, 0, 1, 0, 10, 0, 27, 0, 4, 0, 18, 0, 25, 0, 1, 0, 24, 0, 10, 0, 4, 0, 25, 0, 24, 0, 1, 0, 4, 0, 24, 0, 43, 0, 4, 0, 44, 0, 4, 0, 43, 0, 8, 0, 44, 0, 46, 0, 57, 0, 2, 0, 46, 0, 44, 0, 44, 0, 57, 0, 43, 0, 2, 0, 72, 0, 46, 0, 43, 0, 57, 0, 60, 0, 2, 0, 74, 0, 72, 0, 43, 0, 60, 0, 56, 0, 0, 0, 74, 0, 2, 0, 43, 0, 56, 0, 0, 0, 0, 0, 56, 0, 74, 0, 1, 0, 44, 0, 4, 0, 1, 0, 2, 0, 44, 0, 3, 0, 43, 0, 0, 0, 43, 0, 3, 0, 8, 0, 91, 0, 82, 0, 96, 0, 82, 0, 91, 0, 103, 0, 103, 0, 87, 0, 82, 0, 82, 0, 87, 0, 110, 0, 114, 0, 110, 0, 87, 0, 114, 0, 87, 0, 119, 0, 114, 0, 46, 0, 110, 0, 114, 0, 119, 0, 46, 0, 46, 0, 72, 0, 110, 0, 119, 0, 57, 0, 46, 0, 110, 0, 72, 0, 82, 0, 87, 0, 57, 0, 119, 0, 72, 0, 74, 0, 82, 0, 60, 0, 57, 0, 87, 0, 96, 0, 82, 0, 74, 0, 87, 0, 56, 0, 60, 0, 56, 0, 96, 0, 74, 0, 87, 0, 103, 0, 56, 0, 56, 0, 91, 0, 96, 0, 56, 0, 103, 0, 91, 0, 18, 0, 12, 0, 127, 0, 12, 0, 131, 0, 127, 0, 134, 0, 18, 0, 127, 0, 41, 0, 131, 0, 12, 0, 18, 0, 134, 0, 25, 0, 131, 0, 41, 0, 155, 0, 135, 0, 25, 0, 134, 0, 42, 0, 155, 0, 41, 0, 25, 0, 135, 0, 24, 0, 42, 0, 152, 0, 155, 0, 24, 0, 135, 0, 122, 0, 152, 0, 42, 0, 151, 0, 122, 0, 140, 0, 24, 0, 42, 0, 27, 0, 151, 0, 10, 0, 24, 0, 140, 0, 27, 0, 148, 0, 151, 0, 140, 0, 148, 0, 10, 0, 10, 0, 148, 0, 27, 0, 131, 0, 155, 0, 148, 0, 148, 0, 155, 0, 151, 0, 151, 0, 155, 0, 152, 0, 148, 0, 140, 0, 131, 0, 131, 0, 140, 0, 127, 0, 140, 0, 122, 0, 127, 0, 135, 0, 127, 0, 122, 0, 135, 0, 134, 0, 127, 0), 0.00115955, PackedByteArray(0, 0, 2, 0, 1, 0, 1, 0, 3, 0, 0, 0, 8, 0, 3, 0, 42, 0, 4, 0, 8, 0, 42, 0, 1, 0, 4, 0, 42, 0, 42, 0, 3, 0, 27, 0, 3, 0, 1, 0, 27, 0, 1, 0, 42, 0, 27, 0, 43, 0, 4, 0, 44, 0, 4, 0, 43, 0, 8, 0, 44, 0, 72, 0, 57, 0, 2, 0, 72, 0, 44, 0, 44, 0, 57, 0, 43, 0, 2, 0, 74, 0, 72, 0, 43, 0, 57, 0, 0, 0, 0, 0, 74, 0, 2, 0, 0, 0, 57, 0, 74, 0, 1, 0, 44, 0, 4, 0, 1, 0, 2, 0, 44, 0, 3, 0, 43, 0, 0, 0, 43, 0, 3, 0, 8, 0, 91, 0, 87, 0, 119, 0, 119, 0, 57, 0, 72, 0, 87, 0, 57, 0, 119, 0, 119, 0, 72, 0, 91, 0, 57, 0, 87, 0, 91, 0, 72, 0, 74, 0, 91, 0, 57, 0, 91, 0, 74, 0, 134, 0, 42, 0, 127, 0, 127, 0, 42, 0, 152, 0, 42, 0, 134, 0, 122, 0, 152, 0, 42, 0, 151, 0, 27, 0, 42, 0, 122, 0, 42, 0, 27, 0, 151, 0, 122, 0, 151, 0, 27, 0, 127, 0, 152, 0, 151, 0, 151, 0, 122, 0, 127, 0, 134, 0, 127, 0, 122, 0)],
"name": "ID9.004",
"primitive": 3,
"uv_scale": Vector4(0, 0, 0, 0),
"vertex_count": 158,
"vertex_data": PackedByteArray(205, 204, 76, 60, 20, 215, 35, 59, 160, 156, 196, 186, 207, 204, 76, 188, 238, 81, 184, 60, 160, 156, 196, 186, 205, 204, 76, 60, 238, 81, 184, 60, 160, 156, 196, 186, 207, 204, 76, 188, 20, 215, 35, 59, 160, 156, 196, 186, 207, 204, 76, 188, 238, 81, 184, 60, 160, 154, 196, 58, 207, 204, 76, 188, 203, 95, 90, 60, 65, 203, 18, 58, 207, 204, 76, 188, 25, 161, 88, 60, 65, 101, 53, 58, 207, 204, 76, 188, 191, 138, 86, 60, 193, 193, 82, 58, 207, 204, 76, 188, 20, 215, 35, 59, 160, 154, 196, 58, 207, 204, 76, 188, 130, 106, 60, 60, 221, 154, 223, 178, 207, 204, 76, 188, 164, 167, 92, 60, 126, 21, 132, 185, 207, 204, 76, 188, 4, 32, 93, 60, 250, 229, 177, 184, 207, 204, 76, 188, 1, 90, 61, 60, 130, 173, 174, 57, 207, 204, 76, 188, 232, 166, 60, 60, 3, 45, 49, 57, 207, 204, 76, 188, 231, 152, 81, 60, 193, 167, 122, 58, 207, 204, 76, 188, 22, 45, 84, 60, 65, 22, 106, 58, 207, 204, 76, 188, 165, 13, 64, 60, 193, 178, 36, 58, 207, 204, 76, 188, 47, 127, 62, 60, 130, 174, 255, 57, 207, 204, 76, 188, 249, 26, 76, 60, 96, 243, 130, 58, 207, 204, 76, 188, 125, 225, 78, 60, 160, 1, 130, 58, 207, 204, 76, 188, 189, 53, 68, 60, 193, 59, 95, 58, 207, 204, 76, 188, 163, 249, 65, 60, 193, 200, 68, 58, 207, 204, 76, 188, 18, 89, 73, 60, 224, 33, 128, 58, 207, 204, 76, 188, 194, 176, 70, 60, 65, 60, 115, 58, 207, 204, 76, 188, 164, 167, 92, 60, 130, 27, 132, 57, 207, 204, 76, 188, 169, 186, 91, 60, 130, 240, 215, 57, 207, 204, 76, 188, 4, 32, 93, 60, 6, 198, 177, 56, 207, 204, 76, 188, 249, 26, 76, 60, 32, 245, 130, 186, 207, 204, 76, 188, 203, 95, 90, 60, 63, 200, 18, 186, 207, 204, 76, 188, 169, 186, 91, 60, 126, 248, 215, 185, 207, 204, 76, 188, 191, 138, 86, 60, 63, 197, 82, 186, 207, 204, 76, 188, 25, 161, 88, 60, 191, 98, 53, 186, 207, 204, 76, 188, 231, 152, 81, 60, 191, 164, 122, 186, 207, 204, 76, 188, 22, 45, 84, 60, 63, 19, 106, 186, 207, 204, 76, 188, 125, 225, 78, 60, 160, 3, 130, 186, 207, 204, 76, 188, 194, 176, 70, 60, 191, 57, 115, 186, 207, 204, 76, 188, 18, 89, 73, 60, 96, 32, 128, 186, 207, 204, 76, 188, 163, 249, 65, 60, 191, 197, 68, 186, 207, 204, 76, 188, 189, 53, 68, 60, 63, 57, 95, 186, 207, 204, 76, 188, 47, 127, 62, 60, 126, 181, 255, 185, 207, 204, 76, 188, 165, 13, 64, 60, 191, 175, 36, 186, 207, 204, 76, 188, 232, 166, 60, 60, 253, 60, 49, 185, 207, 204, 76, 188, 1, 90, 61, 60, 126, 167, 174, 185, 205, 204, 76, 60, 20, 215, 35, 59, 160, 154, 196, 58, 205, 204, 76, 60, 238, 81, 184, 60, 160, 154, 196, 58, 205, 204, 76, 60, 191, 138, 86, 60, 193, 193, 82, 58, 205, 204, 76, 60, 25, 161, 88, 60, 65, 101, 53, 58, 205, 204, 76, 60, 203, 95, 90, 60, 65, 203, 18, 58, 205, 204, 76, 60, 130, 106, 60, 60, 221, 154, 223, 178, 205, 204, 76, 60, 4, 32, 93, 60, 250, 229, 177, 184, 205, 204, 76, 60, 164, 167, 92, 60, 126, 21, 132, 185, 205, 204, 76, 60, 1, 90, 61, 60, 130, 173, 174, 57, 205, 204, 76, 60, 232, 166, 60, 60, 3, 45, 49, 57, 205, 204, 76, 60, 231, 152, 81, 60, 193, 167, 122, 58, 205, 204, 76, 60, 22, 45, 84, 60, 65, 22, 106, 58, 205, 204, 76, 60, 165, 13, 64, 60, 193, 178, 36, 58, 205, 204, 76, 60, 47, 127, 62, 60, 130, 174, 255, 57, 205, 204, 76, 60, 249, 26, 76, 60, 96, 243, 130, 58, 205, 204, 76, 60, 125, 225, 78, 60, 160, 1, 130, 58, 205, 204, 76, 60, 189, 53, 68, 60, 193, 59, 95, 58, 205, 204, 76, 60, 163, 249, 65, 60, 193, 200, 68, 58, 205, 204, 76, 60, 18, 89, 73, 60, 224, 33, 128, 58, 205, 204, 76, 60, 194, 176, 70, 60, 65, 60, 115, 58, 205, 204, 76, 60, 169, 186, 91, 60, 130, 240, 215, 57, 205, 204, 76, 60, 164, 167, 92, 60, 130, 27, 132, 57, 205, 204, 76, 60, 4, 32, 93, 60, 6, 198, 177, 56, 205, 204, 76, 60, 249, 26, 76, 60, 32, 245, 130, 186, 205, 204, 76, 60, 203, 95, 90, 60, 63, 200, 18, 186, 205, 204, 76, 60, 169, 186, 91, 60, 126, 248, 215, 185, 205, 204, 76, 60, 191, 138, 86, 60, 63, 197, 82, 186, 205, 204, 76, 60, 25, 161, 88, 60, 191, 98, 53, 186, 205, 204, 76, 60, 231, 152, 81, 60, 191, 164, 122, 186, 205, 204, 76, 60, 22, 45, 84, 60, 63, 19, 106, 186, 205, 204, 76, 60, 125, 225, 78, 60, 160, 3, 130, 186, 205, 204, 76, 60, 194, 176, 70, 60, 191, 57, 115, 186, 205, 204, 76, 60, 18, 89, 73, 60, 96, 32, 128, 186, 205, 204, 76, 60, 163, 249, 65, 60, 191, 197, 68, 186, 205, 204, 76, 60, 189, 53, 68, 60, 63, 57, 95, 186, 205, 204, 76, 60, 47, 127, 62, 60, 126, 181, 255, 185, 205, 204, 76, 60, 165, 13, 64, 60, 191, 175, 36, 186, 205, 204, 76, 60, 232, 166, 60, 60, 253, 60, 49, 185, 205, 204, 76, 60, 1, 90, 61, 60, 126, 167, 174, 185, 235, 81, 184, 60, 170, 97, 83, 60, 63, 13, 112, 186, 235, 81, 184, 60, 130, 106, 60, 60, 221, 154, 223, 178, 235, 81, 184, 60, 131, 210, 80, 60, 63, 33, 126, 186, 235, 81, 184, 60, 180, 53, 91, 60, 126, 134, 249, 185, 235, 81, 184, 60, 3, 180, 65, 60, 193, 224, 64, 58, 235, 81, 184, 60, 22, 223, 63, 60, 65, 7, 33, 58, 235, 81, 184, 60, 236, 99, 62, 60, 126, 134, 249, 185, 235, 81, 184, 60, 28, 199, 72, 60, 63, 33, 126, 186, 235, 81, 184, 60, 93, 114, 75, 60, 224, 157, 130, 186, 235, 81, 184, 60, 141, 163, 60, 60, 253, 158, 44, 185, 235, 81, 184, 60, 215, 77, 61, 60, 126, 64, 170, 185, 235, 81, 184, 60, 67, 39, 78, 60, 224, 157, 130, 186, 235, 81, 184, 60, 246, 55, 70, 60, 63, 13, 112, 186, 235, 81, 184, 60, 22, 223, 63, 60, 63, 4, 33, 186, 235, 81, 184, 60, 3, 180, 65, 60, 191, 221, 64, 186, 235, 81, 184, 60, 242, 214, 67, 60, 191, 114, 91, 186, 235, 81, 184, 60, 141, 163, 60, 60, 3, 145, 44, 57, 235, 81, 184, 60, 173, 194, 85, 60, 191, 114, 91, 186, 235, 81, 184, 60, 215, 77, 61, 60, 130, 56, 170, 57, 235, 81, 184, 60, 157, 229, 87, 60, 191, 221, 64, 186, 235, 81, 184, 60, 138, 186, 89, 60, 63, 4, 33, 186, 235, 81, 184, 60, 236, 99, 62, 60, 130, 139, 249, 57, 235, 81, 184, 60, 201, 75, 92, 60, 126, 64, 170, 185, 235, 81, 184, 60, 242, 214, 67, 60, 193, 117, 91, 58, 235, 81, 184, 60, 19, 246, 92, 60, 253, 158, 44, 185, 235, 81, 184, 60, 30, 47, 93, 60, 221, 154, 223, 178, 235, 81, 184, 60, 246, 55, 70, 60, 65, 16, 112, 58, 235, 81, 184, 60, 28, 199, 72, 60, 65, 29, 126, 58, 235, 81, 184, 60, 19, 246, 92, 60, 3, 145, 44, 57, 235, 81, 184, 60, 93, 114, 75, 60, 96, 159, 130, 58, 235, 81, 184, 60, 180, 53, 91, 60, 130, 139, 249, 57, 235, 81, 184, 60, 67, 39, 78, 60, 96, 159, 130, 58, 235, 81, 184, 60, 201, 75, 92, 60, 130, 56, 170, 57, 235, 81, 184, 60, 157, 229, 87, 60, 193, 224, 64, 58, 235, 81, 184, 60, 173, 194, 85, 60, 193, 117, 91, 58, 235, 81, 184, 60, 170, 97, 83, 60, 65, 16, 112, 58, 235, 81, 184, 60, 131, 210, 80, 60, 65, 29, 126, 58, 235, 81, 184, 60, 138, 186, 89, 60, 65, 7, 33, 58, 237, 81, 184, 188, 67, 39, 78, 60, 96, 159, 130, 58, 237, 81, 184, 188, 93, 114, 75, 60, 96, 159, 130, 58, 237, 81, 184, 188, 30, 47, 93, 60, 221, 154, 223, 178, 237, 81, 184, 188, 28, 199, 72, 60, 65, 29, 126, 58, 237, 81, 184, 188, 246, 55, 70, 60, 65, 16, 112, 58, 237, 81, 184, 188, 242, 214, 67, 60, 193, 117, 91, 58, 237, 81, 184, 188, 3, 180, 65, 60, 193, 224, 64, 58, 237, 81, 184, 188, 22, 223, 63, 60, 65, 7, 33, 58, 237, 81, 184, 188, 236, 99, 62, 60, 130, 139, 249, 57, 237, 81, 184, 188, 215, 77, 61, 60, 130, 56, 170, 57, 237, 81, 184, 188, 141, 163, 60, 60, 3, 145, 44, 57, 237, 81, 184, 188, 130, 106, 60, 60, 221, 154, 223, 178, 237, 81, 184, 188, 131, 210, 80, 60, 65, 29, 126, 58, 237, 81, 184, 188, 170, 97, 83, 60, 65, 16, 112, 58, 237, 81, 184, 188, 173, 194, 85, 60, 193, 117, 91, 58, 237, 81, 184, 188, 157, 229, 87, 60, 193, 224, 64, 58, 237, 81, 184, 188, 138, 186, 89, 60, 65, 7, 33, 58, 237, 81, 184, 188, 180, 53, 91, 60, 130, 139, 249, 57, 237, 81, 184, 188, 201, 75, 92, 60, 130, 56, 170, 57, 237, 81, 184, 188, 19, 246, 92, 60, 3, 145, 44, 57, 237, 81, 184, 188, 180, 53, 91, 60, 126, 134, 249, 185, 237, 81, 184, 188, 201, 75, 92, 60, 126, 64, 170, 185, 237, 81, 184, 188, 19, 246, 92, 60, 253, 158, 44, 185, 237, 81, 184, 188, 173, 194, 85, 60, 191, 114, 91, 186, 237, 81, 184, 188, 138, 186, 89, 60, 63, 4, 33, 186, 237, 81, 184, 188, 157, 229, 87, 60, 191, 221, 64, 186, 237, 81, 184, 188, 67, 39, 78, 60, 224, 157, 130, 186, 237, 81, 184, 188, 131, 210, 80, 60, 63, 33, 126, 186, 237, 81, 184, 188, 170, 97, 83, 60, 63, 13, 112, 186, 237, 81, 184, 188, 246, 55, 70, 60, 63, 13, 112, 186, 237, 81, 184, 188, 28, 199, 72, 60, 63, 33, 126, 186, 237, 81, 184, 188, 93, 114, 75, 60, 224, 157, 130, 186, 237, 81, 184, 188, 22, 223, 63, 60, 63, 4, 33, 186, 237, 81, 184, 188, 3, 180, 65, 60, 191, 221, 64, 186, 237, 81, 184, 188, 242, 214, 67, 60, 191, 114, 91, 186, 237, 81, 184, 188, 236, 99, 62, 60, 126, 134, 249, 185, 237, 81, 184, 188, 215, 77, 61, 60, 126, 64, 170, 185, 237, 81, 184, 188, 141, 163, 60, 60, 253, 158, 44, 185)
}]
blend_shape_mode = 0

[sub_resource type="ArrayMesh" id="ArrayMesh_0c60s"]
resource_name = "pinball_items_ID3_004"
_surfaces = [{
"aabb": AABB(-0.0225, 0.0025, -0.00150003, 0.045, 0.02, 0.003),
"format": 34359742467,
"index_count": 936,
"index_data": PackedByteArray(0, 0, 2, 0, 1, 0, 1, 0, 3, 0, 0, 0, 4, 0, 7, 0, 6, 0, 7, 0, 4, 0, 8, 0, 9, 0, 11, 0, 10, 0, 12, 0, 16, 0, 15, 0, 17, 0, 9, 0, 18, 0, 9, 0, 10, 0, 18, 0, 19, 0, 20, 0, 4, 0, 21, 0, 9, 0, 22, 0, 9, 0, 17, 0, 22, 0, 24, 0, 26, 0, 5, 0, 27, 0, 9, 0, 28, 0, 9, 0, 21, 0, 28, 0, 29, 0, 9, 0, 30, 0, 9, 0, 27, 0, 30, 0, 4, 0, 9, 0, 23, 0, 9, 0, 29, 0, 23, 0, 4, 0, 25, 0, 19, 0, 4, 0, 20, 0, 8, 0, 4, 0, 32, 0, 31, 0, 6, 0, 32, 0, 4, 0, 12, 0, 4, 0, 33, 0, 31, 0, 33, 0, 4, 0, 11, 0, 12, 0, 34, 0, 12, 0, 33, 0, 16, 0, 36, 0, 12, 0, 37, 0, 12, 0, 15, 0, 37, 0, 38, 0, 12, 0, 39, 0, 12, 0, 36, 0, 39, 0, 41, 0, 13, 0, 43, 0, 12, 0, 38, 0, 42, 0, 14, 0, 45, 0, 35, 0, 12, 0, 40, 0, 44, 0, 46, 0, 11, 0, 47, 0, 11, 0, 34, 0, 47, 0, 48, 0, 11, 0, 49, 0, 11, 0, 46, 0, 49, 0, 50, 0, 11, 0, 51, 0, 11, 0, 48, 0, 51, 0, 52, 0, 11, 0, 53, 0, 11, 0, 50, 0, 53, 0, 10, 0, 11, 0, 52, 0, 54, 0, 56, 0, 55, 0, 56, 0, 54, 0, 57, 0, 58, 0, 60, 0, 59, 0, 61, 0, 60, 0, 58, 0, 63, 0, 66, 0, 65, 0, 68, 0, 70, 0, 69, 0, 71, 0, 72, 0, 63, 0, 63, 0, 72, 0, 66, 0, 73, 0, 58, 0, 74, 0, 75, 0, 76, 0, 63, 0, 63, 0, 76, 0, 71, 0, 78, 0, 58, 0, 79, 0, 80, 0, 81, 0, 63, 0, 63, 0, 81, 0, 75, 0, 83, 0, 84, 0, 63, 0, 63, 0, 84, 0, 80, 0, 58, 0, 78, 0, 63, 0, 62, 0, 77, 0, 82, 0, 58, 0, 73, 0, 79, 0, 58, 0, 59, 0, 74, 0, 58, 0, 86, 0, 85, 0, 61, 0, 58, 0, 85, 0, 68, 0, 87, 0, 58, 0, 86, 0, 58, 0, 87, 0, 65, 0, 89, 0, 68, 0, 68, 0, 69, 0, 87, 0, 90, 0, 91, 0, 68, 0, 68, 0, 91, 0, 70, 0, 92, 0, 93, 0, 68, 0, 68, 0, 93, 0, 90, 0, 94, 0, 96, 0, 67, 0, 68, 0, 97, 0, 92, 0, 67, 0, 88, 0, 98, 0, 68, 0, 99, 0, 95, 0, 100, 0, 102, 0, 65, 0, 64, 0, 101, 0, 88, 0, 103, 0, 104, 0, 65, 0, 65, 0, 104, 0, 100, 0, 105, 0, 106, 0, 65, 0, 65, 0, 106, 0, 103, 0, 107, 0, 108, 0, 65, 0, 65, 0, 108, 0, 105, 0, 66, 0, 107, 0, 65, 0, 109, 0, 111, 0, 110, 0, 109, 0, 112, 0, 111, 0, 113, 0, 115, 0, 114, 0, 115, 0, 113, 0, 116, 0, 117, 0, 119, 0, 118, 0, 120, 0, 122, 0, 121, 0, 123, 0, 126, 0, 125, 0, 127, 0, 129, 0, 128, 0, 131, 0, 135, 0, 134, 0, 130, 0, 133, 0, 124, 0, 137, 0, 136, 0, 132, 0, 126, 0, 123, 0, 128, 0, 125, 0, 134, 0, 123, 0, 119, 0, 129, 0, 127, 0, 129, 0, 126, 0, 128, 0, 138, 0, 117, 0, 118, 0, 118, 0, 119, 0, 127, 0, 139, 0, 138, 0, 140, 0, 138, 0, 139, 0, 117, 0, 141, 0, 139, 0, 140, 0, 141, 0, 143, 0, 142, 0, 143, 0, 141, 0, 140, 0, 120, 0, 142, 0, 122, 0, 143, 0, 122, 0, 142, 0, 120, 0, 121, 0, 144, 0, 145, 0, 146, 0, 144, 0, 144, 0, 121, 0, 145, 0, 146, 0, 148, 0, 147, 0, 148, 0, 146, 0, 145, 0, 149, 0, 151, 0, 150, 0, 148, 0, 149, 0, 147, 0, 152, 0, 154, 0, 153, 0, 155, 0, 157, 0, 156, 0, 158, 0, 161, 0, 159, 0, 152, 0, 159, 0, 161, 0, 160, 0, 157, 0, 155, 0, 154, 0, 151, 0, 153, 0, 152, 0, 153, 0, 159, 0, 149, 0, 150, 0, 147, 0, 154, 0, 150, 0, 151, 0, 162, 0, 164, 0, 163, 0, 165, 0, 166, 0, 164, 0, 163, 0, 164, 0, 166, 0, 167, 0, 165, 0, 168, 0, 165, 0, 167, 0, 166, 0, 168, 0, 170, 0, 169, 0, 169, 0, 167, 0, 168, 0, 171, 0, 172, 0, 170, 0, 169, 0, 170, 0, 172, 0, 173, 0, 171, 0, 174, 0, 171, 0, 173, 0, 172, 0, 174, 0, 176, 0, 175, 0, 175, 0, 173, 0, 174, 0, 177, 0, 178, 0, 176, 0, 175, 0, 176, 0, 178, 0, 179, 0, 177, 0, 180, 0, 177, 0, 179, 0, 178, 0, 180, 0, 182, 0, 181, 0, 181, 0, 179, 0, 180, 0, 183, 0, 184, 0, 182, 0, 181, 0, 182, 0, 184, 0, 185, 0, 183, 0, 186, 0, 183, 0, 185, 0, 184, 0, 186, 0, 188, 0, 187, 0, 187, 0, 185, 0, 186, 0, 189, 0, 190, 0, 188, 0, 187, 0, 188, 0, 190, 0, 191, 0, 189, 0, 192, 0, 189, 0, 191, 0, 190, 0, 192, 0, 194, 0, 193, 0, 193, 0, 191, 0, 192, 0, 195, 0, 196, 0, 194, 0, 193, 0, 194, 0, 196, 0, 197, 0, 195, 0, 198, 0, 195, 0, 197, 0, 196, 0, 199, 0, 197, 0, 198, 0, 199, 0, 198, 0, 200, 0, 163, 0, 201, 0, 162, 0, 202, 0, 201, 0, 203, 0, 201, 0, 202, 0, 162, 0, 203, 0, 205, 0, 204, 0, 204, 0, 202, 0, 203, 0, 206, 0, 207, 0, 205, 0, 204, 0, 205, 0, 207, 0, 208, 0, 206, 0, 209, 0, 206, 0, 208, 0, 207, 0, 209, 0, 211, 0, 210, 0, 210, 0, 208, 0, 209, 0, 212, 0, 213, 0, 211, 0, 210, 0, 211, 0, 213, 0, 214, 0, 212, 0, 215, 0, 212, 0, 214, 0, 213, 0, 215, 0, 217, 0, 216, 0, 216, 0, 214, 0, 215, 0, 216, 0, 217, 0, 218, 0, 219, 0, 218, 0, 220, 0, 217, 0, 220, 0, 218, 0, 219, 0, 222, 0, 221, 0, 222, 0, 219, 0, 220, 0, 223, 0, 224, 0, 221, 0, 221, 0, 222, 0, 223, 0, 225, 0, 224, 0, 226, 0, 223, 0, 226, 0, 224, 0, 225, 0, 228, 0, 227, 0, 228, 0, 225, 0, 226, 0, 229, 0, 230, 0, 227, 0, 227, 0, 228, 0, 229, 0, 231, 0, 230, 0, 232, 0, 229, 0, 232, 0, 230, 0, 231, 0, 234, 0, 233, 0, 234, 0, 231, 0, 232, 0, 235, 0, 236, 0, 233, 0, 233, 0, 234, 0, 235, 0, 235, 0, 199, 0, 236, 0, 199, 0, 200, 0, 236, 0, 237, 0, 239, 0, 238, 0, 240, 0, 242, 0, 241, 0, 243, 0, 239, 0, 244, 0, 237, 0, 244, 0, 239, 0, 243, 0, 246, 0, 245, 0, 246, 0, 243, 0, 244, 0, 247, 0, 248, 0, 245, 0, 245, 0, 246, 0, 247, 0, 249, 0, 248, 0, 250, 0, 247, 0, 250, 0, 248, 0, 249, 0, 252, 0, 251, 0, 252, 0, 249, 0, 250, 0, 253, 0, 254, 0, 251, 0, 251, 0, 252, 0, 253, 0, 255, 0, 254, 0, 0, 1, 253, 0, 0, 1, 254, 0, 255, 0, 2, 1, 1, 1, 2, 1, 255, 0, 0, 1, 1, 1, 2, 1, 3, 1, 1, 1, 3, 1, 4, 1, 238, 0, 5, 1, 237, 0, 5, 1, 7, 1, 6, 1, 7, 1, 5, 1, 238, 0, 8, 1, 9, 1, 6, 1, 6, 1, 7, 1, 8, 1, 10, 1, 9, 1, 11, 1, 8, 1, 11, 1, 9, 1, 10, 1, 13, 1, 12, 1, 13, 1, 10, 1, 11, 1, 14, 1, 15, 1, 12, 1, 12, 1, 13, 1, 14, 1, 16, 1, 15, 1, 17, 1, 14, 1, 17, 1, 15, 1, 16, 1, 19, 1, 18, 1, 19, 1, 16, 1, 17, 1, 20, 1, 242, 0, 18, 1, 18, 1, 19, 1, 20, 1, 20, 1, 241, 0, 242, 0, 21, 1, 23, 1, 22, 1, 24, 1, 26, 1, 25, 1, 27, 1, 29, 1, 28, 1, 30, 1, 32, 1, 31, 1, 33, 1, 35, 1, 34, 1, 36, 1, 38, 1, 37, 1, 39, 1, 41, 1, 40, 1, 42, 1, 44, 1, 43, 1, 45, 1, 47, 1, 46, 1, 48, 1, 46, 1, 49, 1, 50, 1, 45, 1, 51, 1, 45, 1, 50, 1, 47, 1, 51, 1, 53, 1, 52, 1, 52, 1, 50, 1, 51, 1, 54, 1, 55, 1, 53, 1, 52, 1, 53, 1, 55, 1, 3, 1, 54, 1, 4, 1, 54, 1, 3, 1, 55, 1, 48, 1, 49, 1, 39, 1, 46, 1, 47, 1, 49, 1, 40, 1, 41, 1, 42, 1, 48, 1, 39, 1, 40, 1, 44, 1, 34, 1, 43, 1, 41, 1, 44, 1, 42, 1, 33, 1, 37, 1, 35, 1, 34, 1, 35, 1, 43, 1, 29, 1, 38, 1, 36, 1, 36, 1, 37, 1, 33, 1, 32, 1, 27, 1, 28, 1, 27, 1, 38, 1, 29, 1, 30, 1, 31, 1, 21, 1, 32, 1, 28, 1, 31, 1, 22, 1, 23, 1, 25, 1, 30, 1, 21, 1, 22, 1, 24, 1, 240, 0, 26, 1, 23, 1, 24, 1, 25, 1, 241, 0, 26, 1, 240, 0, 56, 1, 58, 1, 57, 1, 59, 1, 61, 1, 60, 1, 62, 1, 64, 1, 63, 1, 65, 1, 67, 1, 66, 1, 68, 1, 70, 1, 69, 1, 68, 1, 64, 1, 70, 1, 71, 1, 68, 1, 69, 1, 63, 1, 67, 1, 62, 1, 64, 1, 62, 1, 70, 1, 57, 1, 65, 1, 66, 1, 66, 1, 67, 1, 63, 1, 72, 1, 58, 1, 56, 1, 58, 1, 65, 1, 57, 1, 73, 1, 74, 1, 72, 1, 72, 1, 56, 1, 73, 1, 75, 1, 74, 1, 73, 1, 75, 1, 77, 1, 76, 1, 76, 1, 74, 1, 75, 1, 59, 1, 60, 1, 77, 1, 76, 1, 77, 1, 60, 1, 59, 1, 78, 1, 61, 1, 79, 1, 78, 1, 80, 1, 78, 1, 79, 1, 61, 1, 80, 1, 82, 1, 81, 1, 81, 1, 79, 1, 80, 1, 83, 1, 85, 1, 84, 1, 81, 1, 82, 1, 83, 1, 86, 1, 88, 1, 87, 1, 90, 1, 93, 1, 92, 1, 91, 1, 95, 1, 94, 1, 86, 1, 94, 1, 95, 1, 94, 1, 89, 1, 91, 1, 87, 1, 88, 1, 84, 1, 86, 1, 95, 1, 88, 1, 83, 1, 82, 1, 85, 1, 87, 1, 84, 1, 85, 1),
"lods": [8.50688e-05, PackedByteArray(0, 0, 2, 0, 1, 0, 1, 0, 3, 0, 0, 0, 4, 0, 8, 0, 32, 0, 4, 0, 20, 0, 8, 0, 4, 0, 32, 0, 31, 0, 4, 0, 23, 0, 20, 0, 31, 0, 16, 0, 4, 0, 4, 0, 9, 0, 23, 0, 9, 0, 27, 0, 23, 0, 27, 0, 9, 0, 21, 0, 21, 0, 9, 0, 17, 0, 17, 0, 9, 0, 10, 0, 12, 0, 4, 0, 16, 0, 9, 0, 11, 0, 10, 0, 12, 0, 16, 0, 15, 0, 36, 0, 12, 0, 15, 0, 38, 0, 12, 0, 36, 0, 12, 0, 38, 0, 34, 0, 11, 0, 12, 0, 34, 0, 10, 0, 11, 0, 52, 0, 49, 0, 11, 0, 34, 0, 52, 0, 11, 0, 53, 0, 51, 0, 11, 0, 49, 0, 53, 0, 11, 0, 51, 0, 54, 0, 56, 0, 55, 0, 56, 0, 54, 0, 57, 0, 58, 0, 60, 0, 59, 0, 61, 0, 60, 0, 58, 0, 77, 0, 58, 0, 59, 0, 58, 0, 86, 0, 61, 0, 58, 0, 77, 0, 62, 0, 67, 0, 86, 0, 58, 0, 62, 0, 77, 0, 81, 0, 62, 0, 81, 0, 76, 0, 62, 0, 76, 0, 72, 0, 62, 0, 72, 0, 66, 0, 67, 0, 70, 0, 86, 0, 62, 0, 66, 0, 64, 0, 67, 0, 91, 0, 70, 0, 67, 0, 93, 0, 91, 0, 67, 0, 96, 0, 93, 0, 67, 0, 88, 0, 96, 0, 64, 0, 88, 0, 67, 0, 66, 0, 107, 0, 64, 0, 64, 0, 100, 0, 88, 0, 64, 0, 107, 0, 105, 0, 64, 0, 103, 0, 100, 0, 64, 0, 105, 0, 103, 0, 109, 0, 111, 0, 110, 0, 109, 0, 112, 0, 111, 0, 113, 0, 115, 0, 114, 0, 115, 0, 113, 0, 116, 0, 127, 0, 117, 0, 128, 0, 118, 0, 117, 0, 127, 0, 117, 0, 124, 0, 128, 0, 124, 0, 135, 0, 128, 0, 117, 0, 118, 0, 143, 0, 141, 0, 117, 0, 143, 0, 141, 0, 143, 0, 142, 0, 143, 0, 122, 0, 142, 0, 142, 0, 122, 0, 146, 0, 146, 0, 122, 0, 145, 0, 146, 0, 145, 0, 150, 0, 154, 0, 150, 0, 145, 0, 154, 0, 145, 0, 153, 0, 154, 0, 153, 0, 160, 0, 165, 0, 166, 0, 164, 0, 166, 0, 203, 0, 164, 0, 165, 0, 169, 0, 166, 0, 203, 0, 202, 0, 164, 0, 165, 0, 170, 0, 169, 0, 203, 0, 205, 0, 202, 0, 169, 0, 170, 0, 172, 0, 202, 0, 205, 0, 208, 0, 170, 0, 173, 0, 172, 0, 208, 0, 205, 0, 209, 0, 170, 0, 180, 0, 173, 0, 210, 0, 208, 0, 209, 0, 181, 0, 173, 0, 180, 0, 210, 0, 209, 0, 214, 0, 180, 0, 188, 0, 181, 0, 212, 0, 214, 0, 209, 0, 190, 0, 181, 0, 188, 0, 212, 0, 220, 0, 214, 0, 192, 0, 190, 0, 188, 0, 221, 0, 214, 0, 220, 0, 192, 0, 193, 0, 190, 0, 223, 0, 221, 0, 220, 0, 192, 0, 194, 0, 193, 0, 223, 0, 228, 0, 221, 0, 193, 0, 194, 0, 197, 0, 221, 0, 228, 0, 227, 0, 197, 0, 194, 0, 200, 0, 227, 0, 228, 0, 232, 0, 199, 0, 197, 0, 200, 0, 233, 0, 227, 0, 232, 0, 199, 0, 200, 0, 236, 0, 235, 0, 233, 0, 232, 0, 235, 0, 199, 0, 236, 0, 235, 0, 236, 0, 233, 0, 237, 0, 247, 0, 245, 0, 247, 0, 249, 0, 245, 0, 8, 1, 237, 0, 245, 0, 247, 0, 252, 0, 249, 0, 237, 0, 8, 1, 9, 1, 249, 0, 252, 0, 251, 0, 8, 1, 11, 1, 9, 1, 251, 0, 252, 0, 0, 1, 10, 1, 9, 1, 11, 1, 0, 1, 254, 0, 251, 0, 13, 1, 10, 1, 11, 1, 3, 1, 254, 0, 0, 1, 13, 1, 16, 1, 10, 1, 254, 0, 3, 1, 1, 1, 13, 1, 17, 1, 16, 1, 1, 1, 3, 1, 4, 1, 16, 1, 17, 1, 18, 1, 4, 1, 3, 1, 55, 1, 18, 1, 17, 1, 241, 0, 4, 1, 55, 1, 51, 1, 241, 0, 240, 0, 18, 1, 52, 1, 51, 1, 55, 1, 241, 0, 25, 1, 240, 0, 52, 1, 45, 1, 51, 1, 24, 1, 240, 0, 25, 1, 45, 1, 52, 1, 47, 1, 22, 1, 24, 1, 25, 1, 45, 1, 47, 1, 39, 1, 21, 1, 24, 1, 22, 1, 45, 1, 39, 1, 43, 1, 22, 1, 32, 1, 21, 1, 39, 1, 34, 1, 43, 1, 32, 1, 28, 1, 21, 1, 34, 1, 38, 1, 43, 1, 32, 1, 38, 1, 28, 1, 28, 1, 38, 1, 34, 1, 59, 1, 61, 1, 60, 1, 76, 1, 59, 1, 60, 1, 59, 1, 78, 1, 61, 1, 75, 1, 59, 1, 76, 1, 81, 1, 61, 1, 78, 1, 75, 1, 76, 1, 72, 1, 78, 1, 82, 1, 81, 1, 72, 1, 56, 1, 75, 1, 86, 1, 81, 1, 82, 1, 72, 1, 58, 1, 56, 1, 86, 1, 91, 1, 81, 1, 86, 1, 89, 1, 91, 1, 89, 1, 93, 1, 91, 1, 58, 1, 62, 1, 56, 1, 56, 1, 62, 1, 63, 1, 63, 1, 62, 1, 70, 1), 0.000365229, PackedByteArray(0, 0, 2, 0, 1, 0, 1, 0, 3, 0, 0, 0, 9, 0, 11, 0, 52, 0, 52, 0, 11, 0, 53, 0, 17, 0, 9, 0, 52, 0, 53, 0, 11, 0, 34, 0, 9, 0, 17, 0, 23, 0, 11, 0, 12, 0, 34, 0, 4, 0, 9, 0, 23, 0, 12, 0, 15, 0, 34, 0, 4, 0, 23, 0, 32, 0, 12, 0, 31, 0, 15, 0, 4, 0, 32, 0, 31, 0, 12, 0, 4, 0, 31, 0, 54, 0, 56, 0, 55, 0, 56, 0, 54, 0, 57, 0, 58, 0, 60, 0, 77, 0, 67, 0, 60, 0, 58, 0, 58, 0, 77, 0, 62, 0, 67, 0, 96, 0, 60, 0, 62, 0, 77, 0, 81, 0, 67, 0, 100, 0, 96, 0, 62, 0, 81, 0, 76, 0, 64, 0, 100, 0, 67, 0, 62, 0, 76, 0, 64, 0, 64, 0, 76, 0, 100, 0, 109, 0, 111, 0, 110, 0, 109, 0, 112, 0, 111, 0, 113, 0, 115, 0, 114, 0, 115, 0, 113, 0, 116, 0, 127, 0, 117, 0, 135, 0, 117, 0, 127, 0, 143, 0, 143, 0, 122, 0, 117, 0, 117, 0, 122, 0, 150, 0, 154, 0, 150, 0, 122, 0, 154, 0, 122, 0, 160, 0, 165, 0, 172, 0, 164, 0, 165, 0, 170, 0, 172, 0, 172, 0, 212, 0, 164, 0, 170, 0, 181, 0, 172, 0, 164, 0, 212, 0, 214, 0, 192, 0, 181, 0, 170, 0, 212, 0, 223, 0, 214, 0, 190, 0, 181, 0, 192, 0, 227, 0, 214, 0, 223, 0, 192, 0, 193, 0, 190, 0, 193, 0, 227, 0, 223, 0, 192, 0, 194, 0, 193, 0, 193, 0, 236, 0, 227, 0, 193, 0, 194, 0, 236, 0, 237, 0, 0, 1, 251, 0, 0, 1, 4, 1, 251, 0, 11, 1, 237, 0, 251, 0, 55, 1, 4, 1, 0, 1, 237, 0, 11, 1, 16, 1, 4, 1, 55, 1, 51, 1, 13, 1, 16, 1, 11, 1, 52, 1, 51, 1, 55, 1, 16, 1, 13, 1, 18, 1, 52, 1, 45, 1, 51, 1, 18, 1, 13, 1, 241, 0, 45, 1, 52, 1, 43, 1, 241, 0, 22, 1, 18, 1, 52, 1, 34, 1, 43, 1, 24, 1, 18, 1, 22, 1, 34, 1, 38, 1, 43, 1, 22, 1, 38, 1, 24, 1, 24, 1, 38, 1, 34, 1, 58, 1, 62, 1, 56, 1, 56, 1, 62, 1, 63, 1, 63, 1, 62, 1, 70, 1, 56, 1, 59, 1, 58, 1, 58, 1, 59, 1, 60, 1, 59, 1, 82, 1, 60, 1, 89, 1, 60, 1, 82, 1, 89, 1, 93, 1, 60, 1), 0.00115955, PackedByteArray(0, 0, 2, 0, 1, 0, 1, 0, 3, 0, 0, 0, 9, 0, 11, 0, 53, 0, 4, 0, 9, 0, 53, 0, 12, 0, 4, 0, 53, 0, 53, 0, 11, 0, 34, 0, 11, 0, 12, 0, 34, 0, 12, 0, 53, 0, 34, 0, 54, 0, 56, 0, 55, 0, 56, 0, 54, 0, 57, 0, 58, 0, 96, 0, 77, 0, 67, 0, 96, 0, 58, 0, 58, 0, 77, 0, 62, 0, 67, 0, 100, 0, 96, 0, 62, 0, 77, 0, 64, 0, 64, 0, 100, 0, 67, 0, 64, 0, 77, 0, 100, 0, 109, 0, 111, 0, 110, 0, 109, 0, 112, 0, 111, 0, 113, 0, 115, 0, 114, 0, 115, 0, 113, 0, 116, 0, 127, 0, 122, 0, 160, 0, 170, 0, 181, 0, 212, 0, 192, 0, 181, 0, 170, 0, 170, 0, 212, 0, 236, 0, 181, 0, 192, 0, 236, 0, 212, 0, 223, 0, 236, 0, 181, 0, 236, 0, 223, 0, 11, 1, 52, 1, 251, 0, 251, 0, 52, 1, 45, 1, 52, 1, 11, 1, 241, 0, 45, 1, 52, 1, 43, 1, 34, 1, 52, 1, 241, 0, 52, 1, 34, 1, 43, 1, 241, 0, 43, 1, 34, 1, 60, 1, 70, 1, 63, 1, 63, 1, 82, 1, 60, 1, 93, 1, 60, 1, 82, 1)],
"material": SubResource("StandardMaterial3D_h6kgy"),
"name": "ID9.004",
"primitive": 3,
"uv_scale": Vector4(0, 0, 0, 0),
"vertex_count": 352,
"vertex_data": PackedByteArray(205, 204, 76, 60, 20, 215, 35, 59, 160, 156, 196, 186, 207, 204, 76, 188, 238, 81, 184, 60, 160, 156, 196, 186, 205, 204, 76, 60, 238, 81, 184, 60, 160, 156, 196, 186, 207, 204, 76, 188, 20, 215, 35, 59, 160, 156, 196, 186, 207, 204, 76, 188, 238, 81, 184, 60, 160, 154, 196, 58, 207, 204, 76, 188, 238, 81, 184, 60, 160, 154, 196, 58, 207, 204, 76, 188, 203, 95, 90, 60, 65, 203, 18, 58, 207, 204, 76, 188, 25, 161, 88, 60, 65, 101, 53, 58, 207, 204, 76, 188, 191, 138, 86, 60, 193, 193, 82, 58, 207, 204, 76, 188, 20, 215, 35, 59, 160, 154, 196, 58, 207, 204, 76, 188, 130, 106, 60, 60, 221, 154, 223, 178, 207, 204, 76, 188, 20, 215, 35, 59, 160, 156, 196, 186, 207, 204, 76, 188, 238, 81, 184, 60, 160, 156, 196, 186, 207, 204, 76, 188, 238, 81, 184, 60, 160, 156, 196, 186, 207, 204, 76, 188, 238, 81, 184, 60, 160, 156, 196, 186, 207, 204, 76, 188, 164, 167, 92, 60, 126, 21, 132, 185, 207, 204, 76, 188, 4, 32, 93, 60, 250, 229, 177, 184, 207, 204, 76, 188, 1, 90, 61, 60, 130, 173, 174, 57, 207, 204, 76, 188, 232, 166, 60, 60, 3, 45, 49, 57, 207, 204, 76, 188, 231, 152, 81, 60, 193, 167, 122, 58, 207, 204, 76, 188, 22, 45, 84, 60, 65, 22, 106, 58, 207, 204, 76, 188, 165, 13, 64, 60, 193, 178, 36, 58, 207, 204, 76, 188, 47, 127, 62, 60, 130, 174, 255, 57, 207, 204, 76, 188, 249, 26, 76, 60, 96, 243, 130, 58, 207, 204, 76, 188, 249, 26, 76, 60, 96, 243, 130, 58, 207, 204, 76, 188, 125, 225, 78, 60, 160, 1, 130, 58, 207, 204, 76, 188, 125, 225, 78, 60, 160, 1, 130, 58, 207, 204, 76, 188, 189, 53, 68, 60, 193, 59, 95, 58, 207, 204, 76, 188, 163, 249, 65, 60, 193, 200, 68, 58, 207, 204, 76, 188, 18, 89, 73, 60, 224, 33, 128, 58, 207, 204, 76, 188, 194, 176, 70, 60, 65, 60, 115, 58, 207, 204, 76, 188, 164, 167, 92, 60, 130, 27, 132, 57, 207, 204, 76, 188, 169, 186, 91, 60, 130, 240, 215, 57, 207, 204, 76, 188, 4, 32, 93, 60, 6, 198, 177, 56, 207, 204, 76, 188, 249, 26, 76, 60, 32, 245, 130, 186, 207, 204, 76, 188, 249, 26, 76, 60, 32, 245, 130, 186, 207, 204, 76, 188, 203, 95, 90, 60, 63, 200, 18, 186, 207, 204, 76, 188, 169, 186, 91, 60, 126, 248, 215, 185, 207, 204, 76, 188, 191, 138, 86, 60, 63, 197, 82, 186, 207, 204, 76, 188, 25, 161, 88, 60, 191, 98, 53, 186, 207, 204, 76, 188, 231, 152, 81, 60, 191, 164, 122, 186, 207, 204, 76, 188, 231, 152, 81, 60, 191, 164, 122, 186, 207, 204, 76, 188, 22, 45, 84, 60, 63, 19, 106, 186, 207, 204, 76, 188, 22, 45, 84, 60, 63, 19, 106, 186, 207, 204, 76, 188, 125, 225, 78, 60, 160, 3, 130, 186, 207, 204, 76, 188, 125, 225, 78, 60, 160, 3, 130, 186, 207, 204, 76, 188, 194, 176, 70, 60, 191, 57, 115, 186, 207, 204, 76, 188, 18, 89, 73, 60, 96, 32, 128, 186, 207, 204, 76, 188, 163, 249, 65, 60, 191, 197, 68, 186, 207, 204, 76, 188, 189, 53, 68, 60, 63, 57, 95, 186, 207, 204, 76, 188, 47, 127, 62, 60, 126, 181, 255, 185, 207, 204, 76, 188, 165, 13, 64, 60, 191, 175, 36, 186, 207, 204, 76, 188, 232, 166, 60, 60, 253, 60, 49, 185, 207, 204, 76, 188, 1, 90, 61, 60, 126, 167, 174, 185, 205, 204, 76, 60, 20, 215, 35, 59, 160, 154, 196, 58, 205, 204, 76, 60, 238, 81, 184, 60, 160, 154, 196, 58, 207, 204, 76, 188, 238, 81, 184, 60, 160, 154, 196, 58, 207, 204, 76, 188, 20, 215, 35, 59, 160, 154, 196, 58, 205, 204, 76, 60, 238, 81, 184, 60, 160, 154, 196, 58, 205, 204, 76, 60, 191, 138, 86, 60, 193, 193, 82, 58, 205, 204, 76, 60, 25, 161, 88, 60, 65, 101, 53, 58, 205, 204, 76, 60, 203, 95, 90, 60, 65, 203, 18, 58, 205, 204, 76, 60, 20, 215, 35, 59, 160, 154, 196, 58, 205, 204, 76, 60, 20, 215, 35, 59, 160, 154, 196, 58, 205, 204, 76, 60, 20, 215, 35, 59, 160, 156, 196, 186, 205, 204, 76, 60, 20, 215, 35, 59, 160, 156, 196, 186, 205, 204, 76, 60, 130, 106, 60, 60, 221, 154, 223, 178, 205, 204, 76, 60, 238, 81, 184, 60, 160, 156, 196, 186, 205, 204, 76, 60, 238, 81, 184, 60, 160, 156, 196, 186, 205, 204, 76, 60, 4, 32, 93, 60, 250, 229, 177, 184, 205, 204, 76, 60, 164, 167, 92, 60, 126, 21, 132, 185, 205, 204, 76, 60, 1, 90, 61, 60, 130, 173, 174, 57, 205, 204, 76, 60, 232, 166, 60, 60, 3, 45, 49, 57, 205, 204, 76, 60, 231, 152, 81, 60, 193, 167, 122, 58, 205, 204, 76, 60, 22, 45, 84, 60, 65, 22, 106, 58, 205, 204, 76, 60, 165, 13, 64, 60, 193, 178, 36, 58, 205, 204, 76, 60, 47, 127, 62, 60, 130, 174, 255, 57, 205, 204, 76, 60, 249, 26, 76, 60, 96, 243, 130, 58, 205, 204, 76, 60, 249, 26, 76, 60, 96, 243, 130, 58, 205, 204, 76, 60, 125, 225, 78, 60, 160, 1, 130, 58, 205, 204, 76, 60, 189, 53, 68, 60, 193, 59, 95, 58, 205, 204, 76, 60, 163, 249, 65, 60, 193, 200, 68, 58, 205, 204, 76, 60, 18, 89, 73, 60, 224, 33, 128, 58, 205, 204, 76, 60, 18, 89, 73, 60, 224, 33, 128, 58, 205, 204, 76, 60, 194, 176, 70, 60, 65, 60, 115, 58, 205, 204, 76, 60, 169, 186, 91, 60, 130, 240, 215, 57, 205, 204, 76, 60, 164, 167, 92, 60, 130, 27, 132, 57, 205, 204, 76, 60, 4, 32, 93, 60, 6, 198, 177, 56, 205, 204, 76, 60, 249, 26, 76, 60, 32, 245, 130, 186, 205, 204, 76, 60, 249, 26, 76, 60, 32, 245, 130, 186, 205, 204, 76, 60, 203, 95, 90, 60, 63, 200, 18, 186, 205, 204, 76, 60, 169, 186, 91, 60, 126, 248, 215, 185, 205, 204, 76, 60, 191, 138, 86, 60, 63, 197, 82, 186, 205, 204, 76, 60, 25, 161, 88, 60, 191, 98, 53, 186, 205, 204, 76, 60, 231, 152, 81, 60, 191, 164, 122, 186, 205, 204, 76, 60, 231, 152, 81, 60, 191, 164, 122, 186, 205, 204, 76, 60, 22, 45, 84, 60, 63, 19, 106, 186, 205, 204, 76, 60, 22, 45, 84, 60, 63, 19, 106, 186, 205, 204, 76, 60, 125, 225, 78, 60, 160, 3, 130, 186, 205, 204, 76, 60, 125, 225, 78, 60, 160, 3, 130, 186, 205, 204, 76, 60, 194, 176, 70, 60, 191, 57, 115, 186, 205, 204, 76, 60, 18, 89, 73, 60, 96, 32, 128, 186, 205, 204, 76, 60, 18, 89, 73, 60, 96, 32, 128, 186, 205, 204, 76, 60, 163, 249, 65, 60, 191, 197, 68, 186, 205, 204, 76, 60, 189, 53, 68, 60, 63, 57, 95, 186, 205, 204, 76, 60, 47, 127, 62, 60, 126, 181, 255, 185, 205, 204, 76, 60, 165, 13, 64, 60, 191, 175, 36, 186, 205, 204, 76, 60, 232, 166, 60, 60, 253, 60, 49, 185, 205, 204, 76, 60, 1, 90, 61, 60, 126, 167, 174, 185, 207, 204, 76, 188, 238, 81, 184, 60, 160, 156, 196, 186, 207, 204, 76, 188, 238, 81, 184, 60, 160, 154, 196, 58, 205, 204, 76, 60, 238, 81, 184, 60, 160, 154, 196, 58, 205, 204, 76, 60, 238, 81, 184, 60, 160, 156, 196, 186, 207, 204, 76, 188, 20, 215, 35, 59, 160, 156, 196, 186, 205, 204, 76, 60, 20, 215, 35, 59, 160, 156, 196, 186, 205, 204, 76, 60, 20, 215, 35, 59, 160, 154, 196, 58, 207, 204, 76, 188, 20, 215, 35, 59, 160, 154, 196, 58, 235, 81, 184, 60, 170, 97, 83, 60, 63, 13, 112, 186, 235, 81, 184, 60, 130, 106, 60, 60, 221, 154, 223, 178, 235, 81, 184, 60, 131, 210, 80, 60, 63, 33, 126, 186, 235, 81, 184, 60, 180, 53, 91, 60, 126, 134, 249, 185, 235, 81, 184, 60, 3, 180, 65, 60, 193, 224, 64, 58, 235, 81, 184, 60, 22, 223, 63, 60, 65, 7, 33, 58, 235, 81, 184, 60, 236, 99, 62, 60, 126, 134, 249, 185, 235, 81, 184, 60, 28, 199, 72, 60, 63, 33, 126, 186, 235, 81, 184, 60, 28, 199, 72, 60, 63, 33, 126, 186, 235, 81, 184, 60, 93, 114, 75, 60, 224, 157, 130, 186, 235, 81, 184, 60, 141, 163, 60, 60, 253, 158, 44, 185, 235, 81, 184, 60, 215, 77, 61, 60, 126, 64, 170, 185, 235, 81, 184, 60, 67, 39, 78, 60, 224, 157, 130, 186, 235, 81, 184, 60, 246, 55, 70, 60, 63, 13, 112, 186, 235, 81, 184, 60, 246, 55, 70, 60, 63, 13, 112, 186, 235, 81, 184, 60, 246, 55, 70, 60, 63, 13, 112, 186, 235, 81, 184, 60, 22, 223, 63, 60, 63, 4, 33, 186, 235, 81, 184, 60, 22, 223, 63, 60, 63, 4, 33, 186, 235, 81, 184, 60, 3, 180, 65, 60, 191, 221, 64, 186, 235, 81, 184, 60, 3, 180, 65, 60, 191, 221, 64, 186, 235, 81, 184, 60, 242, 214, 67, 60, 191, 114, 91, 186, 235, 81, 184, 60, 141, 163, 60, 60, 3, 145, 44, 57, 235, 81, 184, 60, 173, 194, 85, 60, 191, 114, 91, 186, 235, 81, 184, 60, 215, 77, 61, 60, 130, 56, 170, 57, 235, 81, 184, 60, 157, 229, 87, 60, 191, 221, 64, 186, 235, 81, 184, 60, 138, 186, 89, 60, 63, 4, 33, 186, 235, 81, 184, 60, 236, 99, 62, 60, 130, 139, 249, 57, 235, 81, 184, 60, 201, 75, 92, 60, 126, 64, 170, 185, 235, 81, 184, 60, 242, 214, 67, 60, 193, 117, 91, 58, 235, 81, 184, 60, 19, 246, 92, 60, 253, 158, 44, 185, 235, 81, 184, 60, 30, 47, 93, 60, 221, 154, 223, 178, 235, 81, 184, 60, 246, 55, 70, 60, 65, 16, 112, 58, 235, 81, 184, 60, 28, 199, 72, 60, 65, 29, 126, 58, 235, 81, 184, 60, 19, 246, 92, 60, 3, 145, 44, 57, 235, 81, 184, 60, 93, 114, 75, 60, 96, 159, 130, 58, 235, 81, 184, 60, 180, 53, 91, 60, 130, 139, 249, 57, 235, 81, 184, 60, 67, 39, 78, 60, 96, 159, 130, 58, 235, 81, 184, 60, 201, 75, 92, 60, 130, 56, 170, 57, 235, 81, 184, 60, 157, 229, 87, 60, 193, 224, 64, 58, 235, 81, 184, 60, 173, 194, 85, 60, 193, 117, 91, 58, 235, 81, 184, 60, 170, 97, 83, 60, 65, 16, 112, 58, 235, 81, 184, 60, 170, 97, 83, 60, 65, 16, 112, 58, 235, 81, 184, 60, 131, 210, 80, 60, 65, 29, 126, 58, 235, 81, 184, 60, 138, 186, 89, 60, 65, 7, 33, 58, 235, 81, 184, 60, 138, 186, 89, 60, 65, 7, 33, 58, 235, 81, 184, 60, 30, 47, 93, 60, 221, 154, 223, 178, 205, 204, 76, 60, 4, 32, 93, 60, 6, 198, 177, 56, 235, 81, 184, 60, 19, 246, 92, 60, 3, 145, 44, 57, 235, 81, 184, 60, 201, 75, 92, 60, 130, 56, 170, 57, 205, 204, 76, 60, 164, 167, 92, 60, 130, 27, 132, 57, 205, 204, 76, 60, 169, 186, 91, 60, 130, 240, 215, 57, 235, 81, 184, 60, 180, 53, 91, 60, 130, 139, 249, 57, 205, 204, 76, 60, 203, 95, 90, 60, 65, 203, 18, 58, 235, 81, 184, 60, 138, 186, 89, 60, 65, 7, 33, 58, 235, 81, 184, 60, 157, 229, 87, 60, 193, 224, 64, 58, 205, 204, 76, 60, 25, 161, 88, 60, 65, 101, 53, 58, 205, 204, 76, 60, 191, 138, 86, 60, 193, 193, 82, 58, 235, 81, 184, 60, 173, 194, 85, 60, 193, 117, 91, 58, 205, 204, 76, 60, 22, 45, 84, 60, 65, 22, 106, 58, 235, 81, 184, 60, 170, 97, 83, 60, 65, 16, 112, 58, 235, 81, 184, 60, 131, 210, 80, 60, 65, 29, 126, 58, 205, 204, 76, 60, 231, 152, 81, 60, 193, 167, 122, 58, 205, 204, 76, 60, 125, 225, 78, 60, 160, 1, 130, 58, 235, 81, 184, 60, 67, 39, 78, 60, 96, 159, 130, 58, 205, 204, 76, 60, 249, 26, 76, 60, 96, 243, 130, 58, 235, 81, 184, 60, 93, 114, 75, 60, 96, 159, 130, 58, 235, 81, 184, 60, 28, 199, 72, 60, 65, 29, 126, 58, 205, 204, 76, 60, 18, 89, 73, 60, 224, 33, 128, 58, 205, 204, 76, 60, 194, 176, 70, 60, 65, 60, 115, 58, 235, 81, 184, 60, 246, 55, 70, 60, 65, 16, 112, 58, 205, 204, 76, 60, 189, 53, 68, 60, 193, 59, 95, 58, 235, 81, 184, 60, 242, 214, 67, 60, 193, 117, 91, 58, 235, 81, 184, 60, 3, 180, 65, 60, 193, 224, 64, 58, 205, 204, 76, 60, 163, 249, 65, 60, 193, 200, 68, 58, 205, 204, 76, 60, 165, 13, 64, 60, 193, 178, 36, 58, 235, 81, 184, 60, 22, 223, 63, 60, 65, 7, 33, 58, 205, 204, 76, 60, 47, 127, 62, 60, 130, 174, 255, 57, 235, 81, 184, 60, 236, 99, 62, 60, 130, 139, 249, 57, 235, 81, 184, 60, 215, 77, 61, 60, 130, 56, 170, 57, 205, 204, 76, 60, 1, 90, 61, 60, 130, 173, 174, 57, 205, 204, 76, 60, 232, 166, 60, 60, 3, 45, 49, 57, 235, 81, 184, 60, 141, 163, 60, 60, 3, 145, 44, 57, 205, 204, 76, 60, 130, 106, 60, 60, 221, 154, 223, 178, 235, 81, 184, 60, 130, 106, 60, 60, 221, 154, 223, 178, 205, 204, 76, 60, 4, 32, 93, 60, 250, 229, 177, 184, 235, 81, 184, 60, 19, 246, 92, 60, 253, 158, 44, 185, 205, 204, 76, 60, 164, 167, 92, 60, 126, 21, 132, 185, 235, 81, 184, 60, 201, 75, 92, 60, 126, 64, 170, 185, 205, 204, 76, 60, 169, 186, 91, 60, 126, 248, 215, 185, 205, 204, 76, 60, 203, 95, 90, 60, 63, 200, 18, 186, 235, 81, 184, 60, 180, 53, 91, 60, 126, 134, 249, 185, 235, 81, 184, 60, 138, 186, 89, 60, 63, 4, 33, 186, 205, 204, 76, 60, 25, 161, 88, 60, 191, 98, 53, 186, 235, 81, 184, 60, 157, 229, 87, 60, 191, 221, 64, 186, 205, 204, 76, 60, 191, 138, 86, 60, 63, 197, 82, 186, 205, 204, 76, 60, 22, 45, 84, 60, 63, 19, 106, 186, 235, 81, 184, 60, 173, 194, 85, 60, 191, 114, 91, 186, 235, 81, 184, 60, 170, 97, 83, 60, 63, 13, 112, 186, 205, 204, 76, 60, 231, 152, 81, 60, 191, 164, 122, 186, 235, 81, 184, 60, 131, 210, 80, 60, 63, 33, 126, 186, 205, 204, 76, 60, 125, 225, 78, 60, 160, 3, 130, 186, 235, 81, 184, 60, 67, 39, 78, 60, 224, 157, 130, 186, 235, 81, 184, 60, 93, 114, 75, 60, 224, 157, 130, 186, 205, 204, 76, 60, 249, 26, 76, 60, 32, 245, 130, 186, 235, 81, 184, 60, 28, 199, 72, 60, 63, 33, 126, 186, 205, 204, 76, 60, 18, 89, 73, 60, 96, 32, 128, 186, 205, 204, 76, 60, 194, 176, 70, 60, 191, 57, 115, 186, 235, 81, 184, 60, 246, 55, 70, 60, 63, 13, 112, 186, 235, 81, 184, 60, 242, 214, 67, 60, 191, 114, 91, 186, 205, 204, 76, 60, 189, 53, 68, 60, 63, 57, 95, 186, 235, 81, 184, 60, 3, 180, 65, 60, 191, 221, 64, 186, 205, 204, 76, 60, 163, 249, 65, 60, 191, 197, 68, 186, 205, 204, 76, 60, 165, 13, 64, 60, 191, 175, 36, 186, 235, 81, 184, 60, 22, 223, 63, 60, 63, 4, 33, 186, 235, 81, 184, 60, 236, 99, 62, 60, 126, 134, 249, 185, 205, 204, 76, 60, 47, 127, 62, 60, 126, 181, 255, 185, 235, 81, 184, 60, 215, 77, 61, 60, 126, 64, 170, 185, 205, 204, 76, 60, 1, 90, 61, 60, 126, 167, 174, 185, 205, 204, 76, 60, 232, 166, 60, 60, 253, 60, 49, 185, 235, 81, 184, 60, 141, 163, 60, 60, 253, 158, 44, 185, 207, 204, 76, 188, 249, 26, 76, 60, 96, 243, 130, 58, 237, 81, 184, 188, 67, 39, 78, 60, 96, 159, 130, 58, 237, 81, 184, 188, 93, 114, 75, 60, 96, 159, 130, 58, 207, 204, 76, 188, 4, 32, 93, 60, 250, 229, 177, 184, 237, 81, 184, 188, 30, 47, 93, 60, 221, 154, 223, 178, 207, 204, 76, 188, 4, 32, 93, 60, 6, 198, 177, 56, 237, 81, 184, 188, 28, 199, 72, 60, 65, 29, 126, 58, 207, 204, 76, 188, 18, 89, 73, 60, 224, 33, 128, 58, 237, 81, 184, 188, 246, 55, 70, 60, 65, 16, 112, 58, 207, 204, 76, 188, 194, 176, 70, 60, 65, 60, 115, 58, 207, 204, 76, 188, 189, 53, 68, 60, 193, 59, 95, 58, 237, 81, 184, 188, 242, 214, 67, 60, 193, 117, 91, 58, 237, 81, 184, 188, 3, 180, 65, 60, 193, 224, 64, 58, 207, 204, 76, 188, 163, 249, 65, 60, 193, 200, 68, 58, 237, 81, 184, 188, 22, 223, 63, 60, 65, 7, 33, 58, 207, 204, 76, 188, 165, 13, 64, 60, 193, 178, 36, 58, 207, 204, 76, 188, 47, 127, 62, 60, 130, 174, 255, 57, 237, 81, 184, 188, 236, 99, 62, 60, 130, 139, 249, 57, 237, 81, 184, 188, 215, 77, 61, 60, 130, 56, 170, 57, 207, 204, 76, 188, 1, 90, 61, 60, 130, 173, 174, 57, 237, 81, 184, 188, 141, 163, 60, 60, 3, 145, 44, 57, 207, 204, 76, 188, 232, 166, 60, 60, 3, 45, 49, 57, 207, 204, 76, 188, 130, 106, 60, 60, 221, 154, 223, 178, 237, 81, 184, 188, 130, 106, 60, 60, 221, 154, 223, 178, 207, 204, 76, 188, 125, 225, 78, 60, 160, 1, 130, 58, 207, 204, 76, 188, 231, 152, 81, 60, 193, 167, 122, 58, 237, 81, 184, 188, 131, 210, 80, 60, 65, 29, 126, 58, 237, 81, 184, 188, 170, 97, 83, 60, 65, 16, 112, 58, 207, 204, 76, 188, 22, 45, 84, 60, 65, 22, 106, 58, 207, 204, 76, 188, 191, 138, 86, 60, 193, 193, 82, 58, 237, 81, 184, 188, 173, 194, 85, 60, 193, 117, 91, 58, 207, 204, 76, 188, 25, 161, 88, 60, 65, 101, 53, 58, 237, 81, 184, 188, 157, 229, 87, 60, 193, 224, 64, 58, 237, 81, 184, 188, 138, 186, 89, 60, 65, 7, 33, 58, 207, 204, 76, 188, 203, 95, 90, 60, 65, 203, 18, 58, 207, 204, 76, 188, 169, 186, 91, 60, 130, 240, 215, 57, 237, 81, 184, 188, 180, 53, 91, 60, 130, 139, 249, 57, 207, 204, 76, 188, 164, 167, 92, 60, 130, 27, 132, 57, 237, 81, 184, 188, 201, 75, 92, 60, 130, 56, 170, 57, 237, 81, 184, 188, 19, 246, 92, 60, 3, 145, 44, 57, 207, 204, 76, 188, 203, 95, 90, 60, 63, 200, 18, 186, 237, 81, 184, 188, 180, 53, 91, 60, 126, 134, 249, 185, 207, 204, 76, 188, 169, 186, 91, 60, 126, 248, 215, 185, 207, 204, 76, 188, 164, 167, 92, 60, 126, 21, 132, 185, 237, 81, 184, 188, 201, 75, 92, 60, 126, 64, 170, 185, 237, 81, 184, 188, 19, 246, 92, 60, 253, 158, 44, 185, 237, 81, 184, 188, 173, 194, 85, 60, 191, 114, 91, 186, 207, 204, 76, 188, 191, 138, 86, 60, 63, 197, 82, 186, 207, 204, 76, 188, 22, 45, 84, 60, 63, 19, 106, 186, 237, 81, 184, 188, 138, 186, 89, 60, 63, 4, 33, 186, 207, 204, 76, 188, 25, 161, 88, 60, 191, 98, 53, 186, 237, 81, 184, 188, 157, 229, 87, 60, 191, 221, 64, 186, 207, 204, 76, 188, 125, 225, 78, 60, 160, 3, 130, 186, 207, 204, 76, 188, 249, 26, 76, 60, 32, 245, 130, 186, 237, 81, 184, 188, 67, 39, 78, 60, 224, 157, 130, 186, 207, 204, 76, 188, 231, 152, 81, 60, 191, 164, 122, 186, 237, 81, 184, 188, 131, 210, 80, 60, 63, 33, 126, 186, 237, 81, 184, 188, 170, 97, 83, 60, 63, 13, 112, 186, 207, 204, 76, 188, 189, 53, 68, 60, 63, 57, 95, 186, 237, 81, 184, 188, 246, 55, 70, 60, 63, 13, 112, 186, 207, 204, 76, 188, 194, 176, 70, 60, 191, 57, 115, 186, 237, 81, 184, 188, 28, 199, 72, 60, 63, 33, 126, 186, 237, 81, 184, 188, 93, 114, 75, 60, 224, 157, 130, 186, 207, 204, 76, 188, 18, 89, 73, 60, 96, 32, 128, 186, 237, 81, 184, 188, 22, 223, 63, 60, 63, 4, 33, 186, 237, 81, 184, 188, 3, 180, 65, 60, 191, 221, 64, 186, 207, 204, 76, 188, 165, 13, 64, 60, 191, 175, 36, 186, 237, 81, 184, 188, 242, 214, 67, 60, 191, 114, 91, 186, 207, 204, 76, 188, 163, 249, 65, 60, 191, 197, 68, 186, 207, 204, 76, 188, 47, 127, 62, 60, 126, 181, 255, 185, 237, 81, 184, 188, 236, 99, 62, 60, 126, 134, 249, 185, 207, 204, 76, 188, 1, 90, 61, 60, 126, 167, 174, 185, 237, 81, 184, 188, 215, 77, 61, 60, 126, 64, 170, 185, 237, 81, 184, 188, 141, 163, 60, 60, 253, 158, 44, 185, 207, 204, 76, 188, 232, 166, 60, 60, 253, 60, 49, 185, 237, 81, 184, 188, 170, 97, 83, 60, 63, 13, 112, 186, 237, 81, 184, 188, 131, 210, 80, 60, 63, 33, 126, 186, 237, 81, 184, 188, 130, 106, 60, 60, 221, 154, 223, 178, 237, 81, 184, 188, 180, 53, 91, 60, 126, 134, 249, 185, 237, 81, 184, 188, 22, 223, 63, 60, 65, 7, 33, 58, 237, 81, 184, 188, 3, 180, 65, 60, 193, 224, 64, 58, 237, 81, 184, 188, 236, 99, 62, 60, 126, 134, 249, 185, 237, 81, 184, 188, 93, 114, 75, 60, 224, 157, 130, 186, 237, 81, 184, 188, 28, 199, 72, 60, 63, 33, 126, 186, 237, 81, 184, 188, 141, 163, 60, 60, 253, 158, 44, 185, 237, 81, 184, 188, 67, 39, 78, 60, 224, 157, 130, 186, 237, 81, 184, 188, 215, 77, 61, 60, 126, 64, 170, 185, 237, 81, 184, 188, 246, 55, 70, 60, 63, 13, 112, 186, 237, 81, 184, 188, 3, 180, 65, 60, 191, 221, 64, 186, 237, 81, 184, 188, 22, 223, 63, 60, 63, 4, 33, 186, 237, 81, 184, 188, 242, 214, 67, 60, 191, 114, 91, 186, 237, 81, 184, 188, 141, 163, 60, 60, 3, 145, 44, 57, 237, 81, 184, 188, 173, 194, 85, 60, 191, 114, 91, 186, 237, 81, 184, 188, 215, 77, 61, 60, 130, 56, 170, 57, 237, 81, 184, 188, 157, 229, 87, 60, 191, 221, 64, 186, 237, 81, 184, 188, 236, 99, 62, 60, 130, 139, 249, 57, 237, 81, 184, 188, 138, 186, 89, 60, 63, 4, 33, 186, 237, 81, 184, 188, 201, 75, 92, 60, 126, 64, 170, 185, 237, 81, 184, 188, 242, 214, 67, 60, 193, 117, 91, 58, 237, 81, 184, 188, 19, 246, 92, 60, 253, 158, 44, 185, 237, 81, 184, 188, 246, 55, 70, 60, 65, 16, 112, 58, 237, 81, 184, 188, 30, 47, 93, 60, 221, 154, 223, 178, 237, 81, 184, 188, 28, 199, 72, 60, 65, 29, 126, 58, 237, 81, 184, 188, 93, 114, 75, 60, 96, 159, 130, 58, 237, 81, 184, 188, 19, 246, 92, 60, 3, 145, 44, 57, 237, 81, 184, 188, 180, 53, 91, 60, 130, 139, 249, 57, 237, 81, 184, 188, 201, 75, 92, 60, 130, 56, 170, 57, 237, 81, 184, 188, 67, 39, 78, 60, 96, 159, 130, 58, 237, 81, 184, 188, 157, 229, 87, 60, 193, 224, 64, 58, 237, 81, 184, 188, 157, 229, 87, 60, 193, 224, 64, 58, 237, 81, 184, 188, 170, 97, 83, 60, 65, 16, 112, 58, 237, 81, 184, 188, 170, 97, 83, 60, 65, 16, 112, 58, 237, 81, 184, 188, 173, 194, 85, 60, 193, 117, 91, 58, 237, 81, 184, 188, 138, 186, 89, 60, 65, 7, 33, 58, 237, 81, 184, 188, 131, 210, 80, 60, 65, 29, 126, 58, 255, 255, 255, 255, 255, 255, 255, 255, 255, 255, 255, 255, 255, 255, 255, 255, 0, 0, 255, 127, 22, 0, 255, 127, 0, 0, 255, 127, 0, 0, 255, 127, 0, 0, 255, 127, 0, 0, 255, 127, 0, 0, 255, 127, 0, 0, 255, 127, 0, 0, 255, 127, 9, 0, 255, 127, 0, 0, 19, 128, 0, 0, 255, 127, 0, 0, 255, 127, 0, 0, 255, 127, 0, 0, 255, 127, 0, 0, 255, 127, 0, 0, 255, 127, 0, 0, 255, 127, 0, 0, 255, 127, 0, 0, 255, 127, 22, 0, 255, 127, 0, 0, 255, 127, 22, 0, 255, 127, 0, 0, 255, 127, 0, 0, 255, 127, 0, 0, 255, 127, 0, 0, 255, 127, 0, 0, 255, 127, 0, 0, 255, 127, 0, 0, 255, 127, 0, 0, 255, 127, 0, 0, 19, 128, 0, 0, 255, 127, 0, 0, 255, 127, 0, 0, 255, 127, 0, 0, 255, 127, 0, 0, 255, 127, 9, 0, 255, 127, 0, 0, 255, 127, 9, 0, 255, 127, 0, 0, 255, 127, 0, 0, 19, 128, 0, 0, 255, 127, 0, 0, 255, 127, 0, 0, 255, 127, 0, 0, 255, 127, 0, 0, 255, 127, 0, 0, 255, 127, 0, 0, 255, 127, 0, 0, 255, 127, 255, 127, 255, 127, 255, 127, 255, 127, 255, 127, 255, 127, 255, 127, 255, 127, 255, 255, 255, 127, 255, 255, 255, 127, 255, 255, 255, 127, 255, 255, 255, 127, 238, 255, 255, 127, 255, 255, 255, 127, 255, 255, 9, 128, 255, 255, 255, 127, 255, 255, 255, 127, 255, 255, 9, 128, 255, 255, 255, 127, 255, 255, 255, 127, 255, 255, 255, 127, 255, 255, 255, 127, 255, 255, 255, 127, 255, 255, 255, 127, 255, 255, 255, 127, 255, 255, 255, 127, 255, 255, 255, 127, 238, 255, 255, 127, 255, 255, 255, 127, 255, 255, 255, 127, 255, 255, 255, 127, 255, 255, 255, 127, 238, 255, 255, 127, 255, 255, 255, 127, 255, 255, 255, 127, 255, 255, 255, 127, 255, 255, 255, 127, 255, 255, 255, 127, 255, 255, 9, 128, 255, 255, 255, 127, 255, 255, 255, 127, 255, 255, 255, 127, 255, 255, 255, 127, 255, 255, 255, 127, 255, 255, 9, 128, 255, 255, 255, 127, 255, 255, 9, 128, 255, 255, 255, 127, 255, 255, 9, 128, 255, 255, 255, 127, 255, 255, 255, 127, 255, 255, 9, 128, 255, 255, 255, 127, 255, 255, 255, 127, 255, 255, 255, 127, 255, 255, 255, 127, 255, 255, 255, 127, 255, 255, 255, 127, 255, 255, 255, 127, 255, 127, 255, 255, 255, 127, 255, 255, 255, 127, 255, 255, 255, 127, 255, 255, 255, 127, 0, 0, 255, 127, 0, 0, 255, 127, 0, 0, 255, 127, 0, 0, 255, 255, 255, 127, 255, 255, 255, 127, 255, 255, 255, 127, 255, 255, 255, 127, 255, 255, 255, 127, 255, 255, 255, 127, 255, 255, 255, 127, 255, 255, 2, 128, 255, 255, 255, 127, 255, 255, 255, 127, 255, 255, 255, 127, 255, 255, 255, 127, 255, 255, 255, 127, 255, 255, 2, 128, 255, 255, 255, 127, 248, 255, 255, 127, 255, 255, 2, 128, 255, 255, 255, 127, 255, 255, 255, 127, 248, 255, 255, 127, 248, 255, 255, 127, 255, 255, 255, 127, 255, 255, 255, 127, 255, 255, 255, 127, 255, 255, 255, 127, 255, 255, 255, 127, 255, 255, 255, 127, 255, 255, 255, 127, 255, 255, 255, 127, 255, 255, 255, 127, 255, 255, 255, 127, 255, 255, 255, 127, 255, 255, 255, 127, 255, 255, 255, 127, 255, 255, 255, 127, 255, 255, 255, 127, 255, 255, 255, 127, 255, 255, 255, 127, 255, 255, 2, 128, 255, 255, 2, 128, 255, 255, 2, 128, 255, 255, 255, 127, 255, 255, 255, 127, 255, 255, 2, 128, 255, 255, 255, 127, 255, 127, 255, 255, 243, 127, 231, 245, 8, 128, 169, 237, 7, 128, 66, 223, 244, 127, 130, 229, 245, 127, 33, 216, 6, 128, 9, 211, 253, 127, 95, 204, 250, 127, 247, 199, 6, 128, 84, 189, 255, 127, 89, 193, 248, 127, 103, 182, 255, 127, 146, 178, 6, 128, 228, 170, 253, 127, 3, 167, 252, 127, 220, 153, 247, 127, 251, 157, 246, 127, 131, 142, 8, 128, 202, 137, 246, 127, 204, 122, 5, 128, 52, 118, 4, 128, 35, 102, 249, 127, 80, 105, 250, 127, 79, 91, 4, 128, 250, 88, 250, 127, 58, 79, 4, 128, 112, 77, 1, 128, 168, 66, 250, 127, 21, 68, 250, 127, 46, 57, 1, 128, 7, 56, 253, 127, 227, 45, 1, 128, 242, 44, 2, 128, 184, 32, 252, 127, 107, 33, 252, 127, 188, 18, 255, 127, 77, 18, 255, 127, 0, 0, 255, 127, 0, 0, 12, 138, 251, 255, 77, 146, 255, 255, 132, 101, 244, 255, 189, 160, 247, 255, 31, 88, 245, 255, 159, 179, 255, 255, 247, 172, 247, 255, 9, 184, 247, 255, 88, 65, 248, 255, 170, 194, 248, 255, 102, 54, 247, 255, 24, 213, 252, 255, 112, 205, 247, 255, 248, 216, 255, 255, 2, 30, 247, 255, 35, 230, 246, 255, 139, 14, 246, 255, 51, 246, 255, 255, 51, 246, 0, 0, 59, 5, 9, 0, 34, 230, 5, 0, 182, 22, 5, 0, 174, 36, 5, 0, 4, 39, 2, 0, 111, 205, 4, 0, 197, 48, 4, 0, 167, 194, 2, 0, 233, 59, 4, 0, 205, 70, 4, 0, 6, 184, 2, 0, 243, 172, 2, 0, 27, 82, 2, 0, 185, 160, 2, 0, 147, 94, 2, 0, 64, 109, 2, 0, 77, 146, 0, 0, 8, 128, 204, 122, 246, 127, 202, 137, 249, 127, 52, 118, 9, 138, 255, 255, 255, 127, 255, 255, 252, 127, 242, 245, 7, 128, 33, 102, 5, 128, 80, 105, 1, 128, 249, 88, 4, 128, 79, 91, 253, 127, 57, 79, 250, 127, 112, 77, 253, 127, 168, 66, 4, 128, 21, 68, 253, 127, 7, 56, 4, 128, 46, 57, 1, 128, 227, 45, 253, 127, 242, 44, 252, 127, 184, 32, 2, 128, 107, 33, 255, 127, 77, 18, 2, 128, 188, 18, 255, 127, 0, 0, 255, 127, 0, 0, 8, 128, 131, 142, 255, 127, 3, 158, 2, 128, 218, 153, 255, 127, 4, 167, 250, 127, 229, 170, 6, 128, 103, 182, 248, 127, 141, 178, 6, 128, 86, 193, 248, 127, 84, 189, 4, 128, 248, 199, 1, 128, 95, 204, 9, 128, 33, 216, 248, 127, 9, 211, 10, 128, 130, 229, 247, 127, 66, 223, 255, 127, 177, 237, 160, 179, 247, 255, 7, 83, 247, 255, 216, 167, 255, 255, 122, 154, 244, 255, 65, 95, 247, 255, 170, 109, 246, 255, 142, 50, 247, 255, 108, 54, 252, 255, 230, 42, 252, 255, 245, 71, 247, 255, 166, 190, 248, 255, 84, 61, 248, 255, 119, 241, 255, 255, 195, 250, 9, 0, 51, 246, 255, 255, 252, 225, 247, 255, 219, 25, 246, 255, 250, 216, 252, 255, 198, 48, 2, 0, 250, 216, 2, 0, 80, 219, 5, 0, 220, 25, 5, 0, 51, 246, 0, 0, 72, 233, 5, 0, 248, 71, 2, 0, 87, 61, 2, 0, 49, 185, 4, 0, 143, 50, 4, 0, 21, 196, 4, 0, 227, 173, 2, 0, 11, 83, 2, 0, 107, 161, 2, 0, 69, 95, 2, 0, 77, 146, 0, 0, 190, 146, 2, 0, 0, 0, 255, 127, 0, 0, 255, 127, 0, 0, 255, 127, 0, 0, 255, 127, 0, 0, 255, 127, 0, 0, 255, 127, 0, 0, 255, 127, 0, 0, 255, 127, 0, 0, 255, 127, 0, 0, 255, 127, 0, 0, 255, 127, 0, 0, 255, 127, 0, 0, 255, 127, 0, 0, 255, 127, 0, 0, 255, 127, 0, 0, 255, 127, 0, 0, 255, 127, 0, 0, 255, 127, 0, 0, 255, 127, 0, 0, 255, 127, 0, 0, 255, 127, 0, 0, 255, 127, 0, 0, 255, 127, 0, 0, 255, 127, 0, 0, 255, 127, 0, 0, 255, 127, 0, 0, 255, 127, 0, 0, 255, 127, 0, 0, 255, 127, 0, 0, 255, 127, 0, 0, 255, 127, 0, 0, 255, 127, 0, 0, 255, 127, 0, 0, 255, 127, 3, 0, 255, 127, 0, 0, 255, 127, 3, 0, 255, 127, 3, 0, 255, 127, 0, 0, 255, 127, 0, 0, 255, 127)
}]
blend_shape_mode = 0
shadow_mesh = SubResource("ArrayMesh_4niuk")

[sub_resource type="Animation" id="Animation_2i2bh"]
length = 0.001
tracks/0/type = "value"
tracks/0/imported = false
tracks/0/enabled = true
tracks/0/path = NodePath("Node3D:rotation")
tracks/0/interp = 1
tracks/0/loop_wrap = true
tracks/0/keys = {
"times": PackedFloat32Array(0),
"transitions": PackedFloat32Array(1),
"update": 0,
"values": [Vector3(0, 0, 0)]
}

[sub_resource type="Animation" id="Animation_q3jx0"]
resource_name = "backward"
length = 0.5
tracks/0/type = "value"
tracks/0/imported = false
tracks/0/enabled = true
tracks/0/path = NodePath("Node3D:rotation")
tracks/0/interp = 1
tracks/0/loop_wrap = true
tracks/0/keys = {
"times": PackedFloat32Array(0, 0.5),
"transitions": PackedFloat32Array(1, 1),
"update": 0,
"values": [Vector3(6.28319, 0, 0), Vector3(-6.28319, 0, 0)]
}

[sub_resource type="Animation" id="Animation_ijib0"]
resource_name = "forward"
length = 0.5
tracks/0/type = "value"
tracks/0/imported = false
tracks/0/enabled = true
tracks/0/path = NodePath("Node3D:rotation")
tracks/0/interp = 1
tracks/0/loop_wrap = true
tracks/0/keys = {
"times": PackedFloat32Array(0, 0.5),
"transitions": PackedFloat32Array(1, 1),
"update": 0,
"values": [Vector3(-6.28319, 0, 0), Vector3(6.28319, 0, 0)]
}

[sub_resource type="AnimationLibrary" id="AnimationLibrary_mteby"]
_data = {
"RESET": SubResource("Animation_2i2bh"),
"backward": SubResource("Animation_q3jx0"),
"forward": SubResource("Animation_ijib0")
}

[sub_resource type="BoxShape3D" id="BoxShape3D_m41dk"]
size = Vector3(0.5, 0.5, 0.2)

[node name="Spinner" type="Node3D"]
script = ExtResource("1_82nwr")
flip_sound = ExtResource("2_bnmy1")

[node name="Node3D" type="Node3D" parent="."]
transform = Transform3D(1, 0, 0, 0, 1, 0, 0, 0, 1, 0, 0.253, 0)

[node name="Spinner" type="MeshInstance3D" parent="Node3D"]
transform = Transform3D(20, 0, 0, 0, 20, 0, 0, 0, 20, 0, -0.253, 0)
mesh = SubResource("ArrayMesh_0c60s")
skeleton = NodePath("")

[node name="AnimationPlayer" type="AnimationPlayer" parent="."]
libraries = {
"": SubResource("AnimationLibrary_mteby")
}

[node name="ForwardArea" type="Area3D" parent="."]
transform = Transform3D(1, 0, 0, 0, 1, 0, 0, 0, 1, 0, 0.25, 0.3)
collision_layer = 0
collision_mask = 2

[node name="CollisionShape3D" type="CollisionShape3D" parent="ForwardArea"]
shape = SubResource("BoxShape3D_m41dk")

[node name="BackwardArea" type="Area3D" parent="."]
transform = Transform3D(1, 0, 0, 0, 1, 0, 0, 0, 1, 0, 0.25, -0.3)
collision_layer = 0
collision_mask = 2

[node name="CollisionShape3D" type="CollisionShape3D" parent="BackwardArea"]
shape = SubResource("BoxShape3D_m41dk")

[node name="FlipAudio" type="AudioStreamPlayer3D" parent="."]

[connection signal="body_entered" from="ForwardArea" to="." method="_on_forward_area_body_entered"]
[connection signal="body_entered" from="BackwardArea" to="." method="_on_backward_area_body_entered"]
[connection signal="finished" from="FlipAudio" to="." method="_on_flip_audio_finished"]
